M48
;DRILL file {KiCad (6.0.0-rc1-dev-634-gb5e3f6406)} date Saturday, October 13, 2018 at 05:37:59 PM
;FORMAT={-:-/ absolute / inch / decimal}
FMAT,2
INCH
T1C0.1260
%
G90
G05
M72
T1
X5.225Y-1.98
X5.225Y-3.18
X6.95Y-3.17
X6.95Y-1.98
T0
M30
