G04 #@! TF.GenerationSoftware,KiCad,Pcbnew,(6.0.0-rc1-dev-634-gb5e3f6406)*
G04 #@! TF.CreationDate,2018-10-13T17:38:11-07:00*
G04 #@! TF.ProjectId,gen2pce,67656E327063652E6B696361645F7063,rev?*
G04 #@! TF.SameCoordinates,Original*
G04 #@! TF.FileFunction,Profile,NP*
%FSLAX46Y46*%
G04 Gerber Fmt 4.6, Leading zero omitted, Abs format (unit mm)*
G04 Created by KiCad (PCBNEW (6.0.0-rc1-dev-634-gb5e3f6406)) date Saturday, October 13, 2018 at 05:38:11 PM*
%MOMM*%
%LPD*%
G01*
G04 APERTURE LIST*
%ADD10C,0.050000*%
G04 APERTURE END LIST*
D10*
X190000000Y-84000000D02*
X190000000Y-47000000D01*
X129500000Y-84000000D02*
X190000000Y-84000000D01*
X129500000Y-47000000D02*
X129500000Y-84000000D01*
X190000000Y-47000000D02*
X129500000Y-47000000D01*
M02*
