M48
;DRILL file {KiCad (6.0.0-rc1-dev-634-gb5e3f6406)} date Saturday, October 13, 2018 at 05:37:59 PM
;FORMAT={-:-/ absolute / inch / decimal}
FMAT,2
INCH
T1C0.0120
T2C0.0276
T3C0.0315
T4C0.0354
T5C0.0394
T6C0.0400
T7C0.0409
T8C0.0866
T9C0.1248
%
G90
G05
M72
T1
X5.515Y-2.395
X6.115Y-3.03
X6.385Y-2.39
T2
X6.305Y-1.925
X6.305Y-2.225
T3
X5.695Y-2.535
X5.695Y-2.635
X5.695Y-2.735
X5.695Y-2.835
X5.695Y-2.935
X5.695Y-3.035
X5.695Y-3.135
X5.695Y-3.235
X5.995Y-2.535
X5.995Y-2.635
X5.995Y-2.735
X5.995Y-2.835
X5.995Y-2.935
X5.995Y-3.035
X5.995Y-3.135
X5.995Y-3.235
X6.9225Y-2.5281
X6.9225Y-2.725
X6.305Y-2.48
X6.305Y-2.6769
X5.3791Y-2.13
X5.4775Y-2.13
X6.46Y-1.925
X6.46Y-2.025
X6.46Y-2.125
X6.46Y-2.225
X6.46Y-2.325
X6.46Y-2.425
X6.46Y-2.525
X6.46Y-2.625
X6.46Y-2.725
X6.46Y-2.825
X6.46Y-2.925
X6.46Y-3.025
X6.46Y-3.125
X6.46Y-3.225
X6.76Y-1.925
X6.76Y-2.025
X6.76Y-2.125
X6.76Y-2.225
X6.76Y-2.325
X6.76Y-2.425
X6.76Y-2.525
X6.76Y-2.625
X6.76Y-2.725
X6.76Y-2.825
X6.76Y-2.925
X6.76Y-3.025
X6.76Y-3.125
X6.76Y-3.225
T4
X5.3472Y-2.4449
X5.3472Y-2.5276
X5.3472Y-2.6299
X5.3472Y-2.7126
X5.4496Y-2.4449
X5.4496Y-2.5433
X5.4496Y-2.6299
X5.4496Y-2.7126
T5
X6.29Y-2.7966
X6.29Y-2.895
X6.29Y-2.9934
T6
X5.8225Y-2.22
X5.8225Y-2.32
X5.9225Y-2.22
X5.9225Y-2.32
X6.0225Y-2.22
X6.0225Y-2.32
T7
X7.1791Y-2.363
X7.1791Y-2.4709
X7.1791Y-2.5787
X7.1791Y-2.6866
X7.1791Y-2.7945
X7.2909Y-2.4169
X7.2909Y-2.5248
X7.2909Y-2.6327
X7.2909Y-2.7406
T8
X5.1976Y-2.5787
X5.2291Y-2.313
X5.2291Y-2.8445
T9
X7.235Y-2.0868
X7.235Y-3.0707
T0
M30
