G04 #@! TF.GenerationSoftware,KiCad,Pcbnew,(6.0.0-rc1-dev-634-gb5e3f6406)*
G04 #@! TF.CreationDate,2018-10-13T17:38:11-07:00*
G04 #@! TF.ProjectId,gen2pce,67656E327063652E6B696361645F7063,rev?*
G04 #@! TF.SameCoordinates,Original*
G04 #@! TF.FileFunction,Soldermask,Bot*
G04 #@! TF.FilePolarity,Negative*
%FSLAX46Y46*%
G04 Gerber Fmt 4.6, Leading zero omitted, Abs format (unit mm)*
G04 Created by KiCad (PCBNEW (6.0.0-rc1-dev-634-gb5e3f6406)) date Saturday, October 13, 2018 at 05:38:11 PM*
%MOMM*%
%LPD*%
G01*
G04 APERTURE LIST*
%ADD10C,0.100000*%
G04 APERTURE END LIST*
D10*
G36*
X152839787Y-81330510D02*
X153000160Y-81379160D01*
X153000162Y-81379161D01*
X153147966Y-81458163D01*
X153277517Y-81564483D01*
X153383837Y-81694034D01*
X153412796Y-81748214D01*
X153462840Y-81841840D01*
X153511490Y-82002213D01*
X153527916Y-82169000D01*
X153511490Y-82335787D01*
X153462840Y-82496160D01*
X153462839Y-82496162D01*
X153383837Y-82643966D01*
X153277517Y-82773517D01*
X153147966Y-82879837D01*
X153000162Y-82958839D01*
X153000160Y-82958840D01*
X152839787Y-83007490D01*
X152714794Y-83019800D01*
X151831206Y-83019800D01*
X151706213Y-83007490D01*
X151545840Y-82958840D01*
X151545838Y-82958839D01*
X151398034Y-82879837D01*
X151268483Y-82773517D01*
X151162163Y-82643966D01*
X151083161Y-82496162D01*
X151083160Y-82496160D01*
X151034510Y-82335787D01*
X151018084Y-82169000D01*
X151034510Y-82002213D01*
X151083160Y-81841840D01*
X151133204Y-81748214D01*
X151162163Y-81694034D01*
X151268483Y-81564483D01*
X151398034Y-81458163D01*
X151545838Y-81379161D01*
X151545840Y-81379160D01*
X151706213Y-81330510D01*
X151831206Y-81318200D01*
X152714794Y-81318200D01*
X152839787Y-81330510D01*
X152839787Y-81330510D01*
G37*
G36*
X145219787Y-81330510D02*
X145380160Y-81379160D01*
X145380162Y-81379161D01*
X145527966Y-81458163D01*
X145657517Y-81564483D01*
X145763837Y-81694034D01*
X145792796Y-81748214D01*
X145842840Y-81841840D01*
X145891490Y-82002213D01*
X145907916Y-82169000D01*
X145891490Y-82335787D01*
X145842840Y-82496160D01*
X145842839Y-82496162D01*
X145763837Y-82643966D01*
X145657517Y-82773517D01*
X145527966Y-82879837D01*
X145380162Y-82958839D01*
X145380160Y-82958840D01*
X145219787Y-83007490D01*
X145094794Y-83019800D01*
X144211206Y-83019800D01*
X144086213Y-83007490D01*
X143925840Y-82958840D01*
X143925838Y-82958839D01*
X143778034Y-82879837D01*
X143648483Y-82773517D01*
X143542163Y-82643966D01*
X143463161Y-82496162D01*
X143463160Y-82496160D01*
X143414510Y-82335787D01*
X143398084Y-82169000D01*
X143414510Y-82002213D01*
X143463160Y-81841840D01*
X143513204Y-81748214D01*
X143542163Y-81694034D01*
X143648483Y-81564483D01*
X143778034Y-81458163D01*
X143925838Y-81379161D01*
X143925840Y-81379160D01*
X144086213Y-81330510D01*
X144211206Y-81318200D01*
X145094794Y-81318200D01*
X145219787Y-81330510D01*
X145219787Y-81330510D01*
G37*
G36*
X171870787Y-81076510D02*
X172031160Y-81125160D01*
X172031162Y-81125161D01*
X172178966Y-81204163D01*
X172308517Y-81310483D01*
X172414837Y-81440034D01*
X172484478Y-81570324D01*
X172493840Y-81587840D01*
X172542490Y-81748213D01*
X172558916Y-81915000D01*
X172542490Y-82081787D01*
X172496036Y-82234920D01*
X172493839Y-82242162D01*
X172414837Y-82389966D01*
X172308517Y-82519517D01*
X172178966Y-82625837D01*
X172031162Y-82704839D01*
X172031160Y-82704840D01*
X171870787Y-82753490D01*
X171745794Y-82765800D01*
X171662206Y-82765800D01*
X171537213Y-82753490D01*
X171376840Y-82704840D01*
X171376838Y-82704839D01*
X171229034Y-82625837D01*
X171099483Y-82519517D01*
X170993163Y-82389966D01*
X170914161Y-82242162D01*
X170911964Y-82234920D01*
X170865510Y-82081787D01*
X170849084Y-81915000D01*
X170865510Y-81748213D01*
X170914160Y-81587840D01*
X170923522Y-81570324D01*
X170993163Y-81440034D01*
X171099483Y-81310483D01*
X171229034Y-81204163D01*
X171376838Y-81125161D01*
X171376840Y-81125160D01*
X171537213Y-81076510D01*
X171662206Y-81064200D01*
X171745794Y-81064200D01*
X171870787Y-81076510D01*
X171870787Y-81076510D01*
G37*
G36*
X164250787Y-81076510D02*
X164411160Y-81125160D01*
X164411162Y-81125161D01*
X164558966Y-81204163D01*
X164688517Y-81310483D01*
X164794837Y-81440034D01*
X164864478Y-81570324D01*
X164873840Y-81587840D01*
X164922490Y-81748213D01*
X164938916Y-81915000D01*
X164922490Y-82081787D01*
X164876036Y-82234920D01*
X164873839Y-82242162D01*
X164794837Y-82389966D01*
X164688517Y-82519517D01*
X164558966Y-82625837D01*
X164411162Y-82704839D01*
X164411160Y-82704840D01*
X164250787Y-82753490D01*
X164125794Y-82765800D01*
X164042206Y-82765800D01*
X163917213Y-82753490D01*
X163756840Y-82704840D01*
X163756838Y-82704839D01*
X163609034Y-82625837D01*
X163479483Y-82519517D01*
X163373163Y-82389966D01*
X163294161Y-82242162D01*
X163291964Y-82234920D01*
X163245510Y-82081787D01*
X163229084Y-81915000D01*
X163245510Y-81748213D01*
X163294160Y-81587840D01*
X163303522Y-81570324D01*
X163373163Y-81440034D01*
X163479483Y-81310483D01*
X163609034Y-81204163D01*
X163756838Y-81125161D01*
X163756840Y-81125160D01*
X163917213Y-81076510D01*
X164042206Y-81064200D01*
X164125794Y-81064200D01*
X164250787Y-81076510D01*
X164250787Y-81076510D01*
G37*
G36*
X132957323Y-79137060D02*
X133196521Y-79184639D01*
X133496947Y-79309080D01*
X133767324Y-79489740D01*
X133997260Y-79719676D01*
X134177920Y-79990053D01*
X134302361Y-80290479D01*
X134327893Y-80418839D01*
X134365800Y-80609409D01*
X134365800Y-80934591D01*
X134349940Y-81014323D01*
X134302361Y-81253521D01*
X134177920Y-81553947D01*
X133997260Y-81824324D01*
X133767324Y-82054260D01*
X133496947Y-82234920D01*
X133196521Y-82359361D01*
X132957323Y-82406940D01*
X132877591Y-82422800D01*
X132552409Y-82422800D01*
X132472677Y-82406940D01*
X132233479Y-82359361D01*
X131933053Y-82234920D01*
X131662676Y-82054260D01*
X131432740Y-81824324D01*
X131252080Y-81553947D01*
X131127639Y-81253521D01*
X131080060Y-81014323D01*
X131064200Y-80934591D01*
X131064200Y-80609409D01*
X131102107Y-80418839D01*
X131127639Y-80290479D01*
X131252080Y-79990053D01*
X131432740Y-79719676D01*
X131662676Y-79489740D01*
X131933053Y-79309080D01*
X132233479Y-79184639D01*
X132472677Y-79137060D01*
X132552409Y-79121200D01*
X132877591Y-79121200D01*
X132957323Y-79137060D01*
X132957323Y-79137060D01*
G37*
G36*
X176772323Y-78883060D02*
X177011521Y-78930639D01*
X177311947Y-79055080D01*
X177582324Y-79235740D01*
X177812260Y-79465676D01*
X177992920Y-79736053D01*
X178117361Y-80036479D01*
X178130785Y-80103966D01*
X178177703Y-80339837D01*
X178180800Y-80355410D01*
X178180800Y-80680590D01*
X178117361Y-80999521D01*
X177992920Y-81299947D01*
X177812260Y-81570324D01*
X177582324Y-81800260D01*
X177311947Y-81980920D01*
X177011521Y-82105361D01*
X176772323Y-82152940D01*
X176692591Y-82168800D01*
X176367409Y-82168800D01*
X176287677Y-82152940D01*
X176048479Y-82105361D01*
X175748053Y-81980920D01*
X175477676Y-81800260D01*
X175247740Y-81570324D01*
X175067080Y-81299947D01*
X174942639Y-80999521D01*
X174879200Y-80680590D01*
X174879200Y-80355410D01*
X174882298Y-80339837D01*
X174929215Y-80103966D01*
X174942639Y-80036479D01*
X175067080Y-79736053D01*
X175247740Y-79465676D01*
X175477676Y-79235740D01*
X175748053Y-79055080D01*
X176048479Y-78930639D01*
X176287677Y-78883060D01*
X176367409Y-78867200D01*
X176692591Y-78867200D01*
X176772323Y-78883060D01*
X176772323Y-78883060D01*
G37*
G36*
X152839787Y-78790510D02*
X153000160Y-78839160D01*
X153000162Y-78839161D01*
X153147966Y-78918163D01*
X153277517Y-79024483D01*
X153383837Y-79154034D01*
X153412796Y-79208214D01*
X153462840Y-79301840D01*
X153511490Y-79462213D01*
X153527916Y-79629000D01*
X153511490Y-79795787D01*
X153462840Y-79956160D01*
X153462839Y-79956162D01*
X153383837Y-80103966D01*
X153277517Y-80233517D01*
X153147966Y-80339837D01*
X153000162Y-80418839D01*
X153000160Y-80418840D01*
X152839787Y-80467490D01*
X152714794Y-80479800D01*
X151831206Y-80479800D01*
X151706213Y-80467490D01*
X151545840Y-80418840D01*
X151545838Y-80418839D01*
X151398034Y-80339837D01*
X151268483Y-80233517D01*
X151162163Y-80103966D01*
X151083161Y-79956162D01*
X151083160Y-79956160D01*
X151034510Y-79795787D01*
X151018084Y-79629000D01*
X151034510Y-79462213D01*
X151083160Y-79301840D01*
X151133204Y-79208214D01*
X151162163Y-79154034D01*
X151268483Y-79024483D01*
X151398034Y-78918163D01*
X151545838Y-78839161D01*
X151545840Y-78839160D01*
X151706213Y-78790510D01*
X151831206Y-78778200D01*
X152714794Y-78778200D01*
X152839787Y-78790510D01*
X152839787Y-78790510D01*
G37*
G36*
X145219787Y-78790510D02*
X145380160Y-78839160D01*
X145380162Y-78839161D01*
X145527966Y-78918163D01*
X145657517Y-79024483D01*
X145763837Y-79154034D01*
X145792796Y-79208214D01*
X145842840Y-79301840D01*
X145891490Y-79462213D01*
X145907916Y-79629000D01*
X145891490Y-79795787D01*
X145842840Y-79956160D01*
X145842839Y-79956162D01*
X145763837Y-80103966D01*
X145657517Y-80233517D01*
X145527966Y-80339837D01*
X145380162Y-80418839D01*
X145380160Y-80418840D01*
X145219787Y-80467490D01*
X145094794Y-80479800D01*
X144211206Y-80479800D01*
X144086213Y-80467490D01*
X143925840Y-80418840D01*
X143925838Y-80418839D01*
X143778034Y-80339837D01*
X143648483Y-80233517D01*
X143542163Y-80103966D01*
X143463161Y-79956162D01*
X143463160Y-79956160D01*
X143414510Y-79795787D01*
X143398084Y-79629000D01*
X143414510Y-79462213D01*
X143463160Y-79301840D01*
X143513204Y-79208214D01*
X143542163Y-79154034D01*
X143648483Y-79024483D01*
X143778034Y-78918163D01*
X143925838Y-78839161D01*
X143925840Y-78839160D01*
X144086213Y-78790510D01*
X144211206Y-78778200D01*
X145094794Y-78778200D01*
X145219787Y-78790510D01*
X145219787Y-78790510D01*
G37*
G36*
X164250787Y-78536510D02*
X164411160Y-78585160D01*
X164411162Y-78585161D01*
X164558966Y-78664163D01*
X164688517Y-78770483D01*
X164794837Y-78900034D01*
X164873839Y-79047838D01*
X164873840Y-79047840D01*
X164922490Y-79208213D01*
X164938916Y-79375000D01*
X164922490Y-79541787D01*
X164896033Y-79629000D01*
X164873839Y-79702162D01*
X164794837Y-79849966D01*
X164688517Y-79979517D01*
X164558966Y-80085837D01*
X164411162Y-80164839D01*
X164411160Y-80164840D01*
X164250787Y-80213490D01*
X164125794Y-80225800D01*
X164042206Y-80225800D01*
X163917213Y-80213490D01*
X163756840Y-80164840D01*
X163756838Y-80164839D01*
X163609034Y-80085837D01*
X163479483Y-79979517D01*
X163373163Y-79849966D01*
X163294161Y-79702162D01*
X163271967Y-79629000D01*
X163245510Y-79541787D01*
X163229084Y-79375000D01*
X163245510Y-79208213D01*
X163294160Y-79047840D01*
X163294161Y-79047838D01*
X163373163Y-78900034D01*
X163479483Y-78770483D01*
X163609034Y-78664163D01*
X163756838Y-78585161D01*
X163756840Y-78585160D01*
X163917213Y-78536510D01*
X164042206Y-78524200D01*
X164125794Y-78524200D01*
X164250787Y-78536510D01*
X164250787Y-78536510D01*
G37*
G36*
X171870787Y-78536510D02*
X172031160Y-78585160D01*
X172031162Y-78585161D01*
X172178966Y-78664163D01*
X172308517Y-78770483D01*
X172414837Y-78900034D01*
X172493839Y-79047838D01*
X172493840Y-79047840D01*
X172542490Y-79208213D01*
X172558916Y-79375000D01*
X172542490Y-79541787D01*
X172516033Y-79629000D01*
X172493839Y-79702162D01*
X172414837Y-79849966D01*
X172308517Y-79979517D01*
X172178966Y-80085837D01*
X172031162Y-80164839D01*
X172031160Y-80164840D01*
X171870787Y-80213490D01*
X171745794Y-80225800D01*
X171662206Y-80225800D01*
X171537213Y-80213490D01*
X171376840Y-80164840D01*
X171376838Y-80164839D01*
X171229034Y-80085837D01*
X171099483Y-79979517D01*
X170993163Y-79849966D01*
X170914161Y-79702162D01*
X170891967Y-79629000D01*
X170865510Y-79541787D01*
X170849084Y-79375000D01*
X170865510Y-79208213D01*
X170914160Y-79047840D01*
X170914161Y-79047838D01*
X170993163Y-78900034D01*
X171099483Y-78770483D01*
X171229034Y-78664163D01*
X171376838Y-78585161D01*
X171376840Y-78585160D01*
X171537213Y-78536510D01*
X171662206Y-78524200D01*
X171745794Y-78524200D01*
X171870787Y-78536510D01*
X171870787Y-78536510D01*
G37*
G36*
X184229452Y-76250510D02*
X184294274Y-76263404D01*
X184621999Y-76399152D01*
X184749705Y-76484483D01*
X184916946Y-76596230D01*
X185167770Y-76847054D01*
X185167772Y-76847057D01*
X185329434Y-77089000D01*
X185364849Y-77142003D01*
X185500596Y-77469726D01*
X185569800Y-77817636D01*
X185569800Y-78172364D01*
X185500596Y-78520274D01*
X185440995Y-78664165D01*
X185364848Y-78847999D01*
X185246925Y-79024483D01*
X185167770Y-79142946D01*
X184916946Y-79393770D01*
X184916943Y-79393772D01*
X184621999Y-79590848D01*
X184621998Y-79590849D01*
X184621997Y-79590849D01*
X184294274Y-79726596D01*
X183946364Y-79795800D01*
X183591636Y-79795800D01*
X183243726Y-79726596D01*
X182916003Y-79590849D01*
X182916002Y-79590849D01*
X182916001Y-79590848D01*
X182621057Y-79393772D01*
X182621054Y-79393770D01*
X182370230Y-79142946D01*
X182291075Y-79024483D01*
X182173152Y-78847999D01*
X182097006Y-78664165D01*
X182037404Y-78520274D01*
X181968200Y-78172364D01*
X181968200Y-77817636D01*
X182037404Y-77469726D01*
X182173151Y-77142003D01*
X182208567Y-77089000D01*
X182370228Y-76847057D01*
X182370230Y-76847054D01*
X182621054Y-76596230D01*
X182788295Y-76484483D01*
X182916001Y-76399152D01*
X183243726Y-76263404D01*
X183308548Y-76250510D01*
X183591636Y-76194200D01*
X183946364Y-76194200D01*
X184229452Y-76250510D01*
X184229452Y-76250510D01*
G37*
G36*
X152839787Y-76250510D02*
X153000160Y-76299160D01*
X153000162Y-76299161D01*
X153147966Y-76378163D01*
X153277517Y-76484483D01*
X153383837Y-76614034D01*
X153412796Y-76668214D01*
X153462840Y-76761840D01*
X153511490Y-76922213D01*
X153527916Y-77089000D01*
X153511490Y-77255787D01*
X153462840Y-77416160D01*
X153462839Y-77416162D01*
X153383837Y-77563966D01*
X153277517Y-77693517D01*
X153147966Y-77799837D01*
X153000162Y-77878839D01*
X153000160Y-77878840D01*
X152839787Y-77927490D01*
X152714794Y-77939800D01*
X151831206Y-77939800D01*
X151706213Y-77927490D01*
X151545840Y-77878840D01*
X151545838Y-77878839D01*
X151398034Y-77799837D01*
X151268483Y-77693517D01*
X151162163Y-77563966D01*
X151083161Y-77416162D01*
X151083160Y-77416160D01*
X151034510Y-77255787D01*
X151018084Y-77089000D01*
X151034510Y-76922213D01*
X151083160Y-76761840D01*
X151133204Y-76668214D01*
X151162163Y-76614034D01*
X151268483Y-76484483D01*
X151398034Y-76378163D01*
X151545838Y-76299161D01*
X151545840Y-76299160D01*
X151706213Y-76250510D01*
X151831206Y-76238200D01*
X152714794Y-76238200D01*
X152839787Y-76250510D01*
X152839787Y-76250510D01*
G37*
G36*
X145219787Y-76250510D02*
X145380160Y-76299160D01*
X145380162Y-76299161D01*
X145527966Y-76378163D01*
X145657517Y-76484483D01*
X145763837Y-76614034D01*
X145792796Y-76668214D01*
X145842840Y-76761840D01*
X145891490Y-76922213D01*
X145907916Y-77089000D01*
X145891490Y-77255787D01*
X145842840Y-77416160D01*
X145842839Y-77416162D01*
X145763837Y-77563966D01*
X145657517Y-77693517D01*
X145527966Y-77799837D01*
X145380162Y-77878839D01*
X145380160Y-77878840D01*
X145219787Y-77927490D01*
X145094794Y-77939800D01*
X144211206Y-77939800D01*
X144086213Y-77927490D01*
X143925840Y-77878840D01*
X143925838Y-77878839D01*
X143778034Y-77799837D01*
X143648483Y-77693517D01*
X143542163Y-77563966D01*
X143463161Y-77416162D01*
X143463160Y-77416160D01*
X143414510Y-77255787D01*
X143398084Y-77089000D01*
X143414510Y-76922213D01*
X143463160Y-76761840D01*
X143513204Y-76668214D01*
X143542163Y-76614034D01*
X143648483Y-76484483D01*
X143778034Y-76378163D01*
X143925838Y-76299161D01*
X143925840Y-76299160D01*
X144086213Y-76250510D01*
X144211206Y-76238200D01*
X145094794Y-76238200D01*
X145219787Y-76250510D01*
X145219787Y-76250510D01*
G37*
G36*
X171870787Y-75996510D02*
X172031160Y-76045160D01*
X172031162Y-76045161D01*
X172178966Y-76124163D01*
X172308517Y-76230483D01*
X172414837Y-76360034D01*
X172493839Y-76507838D01*
X172493840Y-76507840D01*
X172542490Y-76668213D01*
X172558916Y-76835000D01*
X172542490Y-77001787D01*
X172493840Y-77162160D01*
X172493839Y-77162162D01*
X172414837Y-77309966D01*
X172308517Y-77439517D01*
X172178966Y-77545837D01*
X172031162Y-77624839D01*
X172031160Y-77624840D01*
X171870787Y-77673490D01*
X171745794Y-77685800D01*
X171662206Y-77685800D01*
X171537213Y-77673490D01*
X171376840Y-77624840D01*
X171376838Y-77624839D01*
X171229034Y-77545837D01*
X171099483Y-77439517D01*
X170993163Y-77309966D01*
X170914161Y-77162162D01*
X170914160Y-77162160D01*
X170865510Y-77001787D01*
X170849084Y-76835000D01*
X170865510Y-76668213D01*
X170914160Y-76507840D01*
X170914161Y-76507838D01*
X170993163Y-76360034D01*
X171099483Y-76230483D01*
X171229034Y-76124163D01*
X171376838Y-76045161D01*
X171376840Y-76045160D01*
X171537213Y-75996510D01*
X171662206Y-75984200D01*
X171745794Y-75984200D01*
X171870787Y-75996510D01*
X171870787Y-75996510D01*
G37*
G36*
X164250787Y-75996510D02*
X164411160Y-76045160D01*
X164411162Y-76045161D01*
X164558966Y-76124163D01*
X164688517Y-76230483D01*
X164794837Y-76360034D01*
X164873839Y-76507838D01*
X164873840Y-76507840D01*
X164922490Y-76668213D01*
X164938916Y-76835000D01*
X164922490Y-77001787D01*
X164873840Y-77162160D01*
X164873839Y-77162162D01*
X164794837Y-77309966D01*
X164688517Y-77439517D01*
X164558966Y-77545837D01*
X164411162Y-77624839D01*
X164411160Y-77624840D01*
X164250787Y-77673490D01*
X164125794Y-77685800D01*
X164042206Y-77685800D01*
X163917213Y-77673490D01*
X163756840Y-77624840D01*
X163756838Y-77624839D01*
X163609034Y-77545837D01*
X163479483Y-77439517D01*
X163373163Y-77309966D01*
X163294161Y-77162162D01*
X163294160Y-77162160D01*
X163245510Y-77001787D01*
X163229084Y-76835000D01*
X163245510Y-76668213D01*
X163294160Y-76507840D01*
X163294161Y-76507838D01*
X163373163Y-76360034D01*
X163479483Y-76230483D01*
X163609034Y-76124163D01*
X163756838Y-76045161D01*
X163756840Y-76045160D01*
X163917213Y-75996510D01*
X164042206Y-75984200D01*
X164125794Y-75984200D01*
X164250787Y-75996510D01*
X164250787Y-75996510D01*
G37*
G36*
X159898229Y-75140854D02*
X160028754Y-75166817D01*
X160192689Y-75234721D01*
X160340227Y-75333303D01*
X160465697Y-75458773D01*
X160564279Y-75606311D01*
X160632183Y-75770246D01*
X160666800Y-75944279D01*
X160666800Y-76121721D01*
X160632183Y-76295754D01*
X160564279Y-76459689D01*
X160465697Y-76607227D01*
X160340227Y-76732697D01*
X160192689Y-76831279D01*
X160028754Y-76899183D01*
X159912973Y-76922213D01*
X159854722Y-76933800D01*
X159677278Y-76933800D01*
X159619027Y-76922213D01*
X159503246Y-76899183D01*
X159339311Y-76831279D01*
X159191773Y-76732697D01*
X159066303Y-76607227D01*
X158967721Y-76459689D01*
X158899817Y-76295754D01*
X158865200Y-76121721D01*
X158865200Y-75944279D01*
X158899817Y-75770246D01*
X158967721Y-75606311D01*
X159066303Y-75458773D01*
X159191773Y-75333303D01*
X159339311Y-75234721D01*
X159503246Y-75166817D01*
X159633771Y-75140854D01*
X159677278Y-75132200D01*
X159854722Y-75132200D01*
X159898229Y-75140854D01*
X159898229Y-75140854D01*
G37*
G36*
X145219787Y-73710510D02*
X145380160Y-73759160D01*
X145380162Y-73759161D01*
X145527966Y-73838163D01*
X145657517Y-73944483D01*
X145763837Y-74074034D01*
X145792796Y-74128214D01*
X145842840Y-74221840D01*
X145891490Y-74382213D01*
X145907916Y-74549000D01*
X145891490Y-74715787D01*
X145842840Y-74876160D01*
X145842839Y-74876162D01*
X145763837Y-75023966D01*
X145657517Y-75153517D01*
X145527966Y-75259837D01*
X145380162Y-75338839D01*
X145380160Y-75338840D01*
X145219787Y-75387490D01*
X145094794Y-75399800D01*
X144211206Y-75399800D01*
X144086213Y-75387490D01*
X143925840Y-75338840D01*
X143925838Y-75338839D01*
X143778034Y-75259837D01*
X143648483Y-75153517D01*
X143542163Y-75023966D01*
X143463161Y-74876162D01*
X143463160Y-74876160D01*
X143414510Y-74715787D01*
X143398084Y-74549000D01*
X143414510Y-74382213D01*
X143463160Y-74221840D01*
X143513204Y-74128214D01*
X143542163Y-74074034D01*
X143648483Y-73944483D01*
X143778034Y-73838163D01*
X143925838Y-73759161D01*
X143925840Y-73759160D01*
X144086213Y-73710510D01*
X144211206Y-73698200D01*
X145094794Y-73698200D01*
X145219787Y-73710510D01*
X145219787Y-73710510D01*
G37*
G36*
X152839787Y-73710510D02*
X153000160Y-73759160D01*
X153000162Y-73759161D01*
X153147966Y-73838163D01*
X153277517Y-73944483D01*
X153383837Y-74074034D01*
X153412796Y-74128214D01*
X153462840Y-74221840D01*
X153511490Y-74382213D01*
X153527916Y-74549000D01*
X153511490Y-74715787D01*
X153462840Y-74876160D01*
X153462839Y-74876162D01*
X153383837Y-75023966D01*
X153277517Y-75153517D01*
X153147966Y-75259837D01*
X153000162Y-75338839D01*
X153000160Y-75338840D01*
X152839787Y-75387490D01*
X152714794Y-75399800D01*
X151831206Y-75399800D01*
X151706213Y-75387490D01*
X151545840Y-75338840D01*
X151545838Y-75338839D01*
X151398034Y-75259837D01*
X151268483Y-75153517D01*
X151162163Y-75023966D01*
X151083161Y-74876162D01*
X151083160Y-74876160D01*
X151034510Y-74715787D01*
X151018084Y-74549000D01*
X151034510Y-74382213D01*
X151083160Y-74221840D01*
X151133204Y-74128214D01*
X151162163Y-74074034D01*
X151268483Y-73944483D01*
X151398034Y-73838163D01*
X151545838Y-73759161D01*
X151545840Y-73759160D01*
X151706213Y-73710510D01*
X151831206Y-73698200D01*
X152714794Y-73698200D01*
X152839787Y-73710510D01*
X152839787Y-73710510D01*
G37*
G36*
X171870787Y-73456510D02*
X172031160Y-73505160D01*
X172031162Y-73505161D01*
X172178966Y-73584163D01*
X172308517Y-73690483D01*
X172414837Y-73820034D01*
X172489483Y-73959689D01*
X172493840Y-73967840D01*
X172542490Y-74128213D01*
X172558916Y-74295000D01*
X172542490Y-74461787D01*
X172516033Y-74549000D01*
X172493839Y-74622162D01*
X172414837Y-74769966D01*
X172308517Y-74899517D01*
X172178966Y-75005837D01*
X172031162Y-75084839D01*
X172031160Y-75084840D01*
X171870787Y-75133490D01*
X171745794Y-75145800D01*
X171662206Y-75145800D01*
X171537213Y-75133490D01*
X171376840Y-75084840D01*
X171376838Y-75084839D01*
X171229034Y-75005837D01*
X171099483Y-74899517D01*
X170993163Y-74769966D01*
X170914161Y-74622162D01*
X170891967Y-74549000D01*
X170865510Y-74461787D01*
X170849084Y-74295000D01*
X170865510Y-74128213D01*
X170914160Y-73967840D01*
X170918517Y-73959689D01*
X170993163Y-73820034D01*
X171099483Y-73690483D01*
X171229034Y-73584163D01*
X171376838Y-73505161D01*
X171376840Y-73505160D01*
X171537213Y-73456510D01*
X171662206Y-73444200D01*
X171745794Y-73444200D01*
X171870787Y-73456510D01*
X171870787Y-73456510D01*
G37*
G36*
X164250787Y-73456510D02*
X164411160Y-73505160D01*
X164411162Y-73505161D01*
X164558966Y-73584163D01*
X164688517Y-73690483D01*
X164794837Y-73820034D01*
X164869483Y-73959689D01*
X164873840Y-73967840D01*
X164922490Y-74128213D01*
X164938916Y-74295000D01*
X164922490Y-74461787D01*
X164896033Y-74549000D01*
X164873839Y-74622162D01*
X164794837Y-74769966D01*
X164688517Y-74899517D01*
X164558966Y-75005837D01*
X164411162Y-75084839D01*
X164411160Y-75084840D01*
X164250787Y-75133490D01*
X164125794Y-75145800D01*
X164042206Y-75145800D01*
X163917213Y-75133490D01*
X163756840Y-75084840D01*
X163756838Y-75084839D01*
X163609034Y-75005837D01*
X163479483Y-74899517D01*
X163373163Y-74769966D01*
X163294161Y-74622162D01*
X163271967Y-74549000D01*
X163245510Y-74461787D01*
X163229084Y-74295000D01*
X163245510Y-74128213D01*
X163294160Y-73967840D01*
X163298517Y-73959689D01*
X163373163Y-73820034D01*
X163479483Y-73690483D01*
X163609034Y-73584163D01*
X163756838Y-73505161D01*
X163756840Y-73505160D01*
X163917213Y-73456510D01*
X164042206Y-73444200D01*
X164125794Y-73444200D01*
X164250787Y-73456510D01*
X164250787Y-73456510D01*
G37*
G36*
X159898229Y-72640854D02*
X160028754Y-72666817D01*
X160192689Y-72734721D01*
X160340227Y-72833303D01*
X160465697Y-72958773D01*
X160564279Y-73106311D01*
X160632183Y-73270246D01*
X160666800Y-73444279D01*
X160666800Y-73621721D01*
X160632183Y-73795754D01*
X160564279Y-73959689D01*
X160465697Y-74107227D01*
X160340227Y-74232697D01*
X160192689Y-74331279D01*
X160028754Y-74399183D01*
X159898229Y-74425146D01*
X159854722Y-74433800D01*
X159677278Y-74433800D01*
X159633771Y-74425146D01*
X159503246Y-74399183D01*
X159339311Y-74331279D01*
X159191773Y-74232697D01*
X159066303Y-74107227D01*
X158967721Y-73959689D01*
X158899817Y-73795754D01*
X158865200Y-73621721D01*
X158865200Y-73444279D01*
X158899817Y-73270246D01*
X158967721Y-73106311D01*
X159066303Y-72958773D01*
X159191773Y-72833303D01*
X159339311Y-72734721D01*
X159503246Y-72666817D01*
X159633771Y-72640854D01*
X159677278Y-72632200D01*
X159854722Y-72632200D01*
X159898229Y-72640854D01*
X159898229Y-72640854D01*
G37*
G36*
X133229318Y-70495277D02*
X133345292Y-70518346D01*
X133673027Y-70654098D01*
X133967982Y-70851180D01*
X134218820Y-71102018D01*
X134415902Y-71396973D01*
X134551654Y-71724708D01*
X134551654Y-71724709D01*
X134620860Y-72072629D01*
X134620860Y-72427371D01*
X134609602Y-72483966D01*
X134551654Y-72775292D01*
X134415902Y-73103027D01*
X134218820Y-73397982D01*
X133967982Y-73648820D01*
X133673027Y-73845902D01*
X133345292Y-73981654D01*
X133229318Y-74004723D01*
X132997371Y-74050860D01*
X132642629Y-74050860D01*
X132410682Y-74004723D01*
X132294708Y-73981654D01*
X131966973Y-73845902D01*
X131672018Y-73648820D01*
X131421180Y-73397982D01*
X131224098Y-73103027D01*
X131088346Y-72775292D01*
X131030398Y-72483966D01*
X131019140Y-72427371D01*
X131019140Y-72072629D01*
X131088346Y-71724709D01*
X131088346Y-71724708D01*
X131224098Y-71396973D01*
X131421180Y-71102018D01*
X131672018Y-70851180D01*
X131966973Y-70654098D01*
X132294708Y-70518346D01*
X132410682Y-70495277D01*
X132642629Y-70449140D01*
X132997371Y-70449140D01*
X133229318Y-70495277D01*
X133229318Y-70495277D01*
G37*
G36*
X145219787Y-71170510D02*
X145380160Y-71219160D01*
X145380162Y-71219161D01*
X145527966Y-71298163D01*
X145657517Y-71404483D01*
X145763837Y-71534034D01*
X145842839Y-71681838D01*
X145842840Y-71681840D01*
X145891490Y-71842213D01*
X145907916Y-72009000D01*
X145891490Y-72175787D01*
X145842840Y-72336160D01*
X145842839Y-72336162D01*
X145763837Y-72483966D01*
X145657517Y-72613517D01*
X145527966Y-72719837D01*
X145380162Y-72798839D01*
X145380160Y-72798840D01*
X145219787Y-72847490D01*
X145094794Y-72859800D01*
X144211206Y-72859800D01*
X144086213Y-72847490D01*
X143925840Y-72798840D01*
X143925838Y-72798839D01*
X143778034Y-72719837D01*
X143648483Y-72613517D01*
X143542163Y-72483966D01*
X143463161Y-72336162D01*
X143463160Y-72336160D01*
X143414510Y-72175787D01*
X143398084Y-72009000D01*
X143414510Y-71842213D01*
X143463160Y-71681840D01*
X143463161Y-71681838D01*
X143542163Y-71534034D01*
X143648483Y-71404483D01*
X143778034Y-71298163D01*
X143925838Y-71219161D01*
X143925840Y-71219160D01*
X144086213Y-71170510D01*
X144211206Y-71158200D01*
X145094794Y-71158200D01*
X145219787Y-71170510D01*
X145219787Y-71170510D01*
G37*
G36*
X152839787Y-71170510D02*
X153000160Y-71219160D01*
X153000162Y-71219161D01*
X153147966Y-71298163D01*
X153277517Y-71404483D01*
X153383837Y-71534034D01*
X153462839Y-71681838D01*
X153462840Y-71681840D01*
X153511490Y-71842213D01*
X153527916Y-72009000D01*
X153511490Y-72175787D01*
X153462840Y-72336160D01*
X153462839Y-72336162D01*
X153383837Y-72483966D01*
X153277517Y-72613517D01*
X153147966Y-72719837D01*
X153000162Y-72798839D01*
X153000160Y-72798840D01*
X152839787Y-72847490D01*
X152714794Y-72859800D01*
X151831206Y-72859800D01*
X151706213Y-72847490D01*
X151545840Y-72798840D01*
X151545838Y-72798839D01*
X151398034Y-72719837D01*
X151268483Y-72613517D01*
X151162163Y-72483966D01*
X151083161Y-72336162D01*
X151083160Y-72336160D01*
X151034510Y-72175787D01*
X151018084Y-72009000D01*
X151034510Y-71842213D01*
X151083160Y-71681840D01*
X151083161Y-71681838D01*
X151162163Y-71534034D01*
X151268483Y-71404483D01*
X151398034Y-71298163D01*
X151545838Y-71219161D01*
X151545840Y-71219160D01*
X151706213Y-71170510D01*
X151831206Y-71158200D01*
X152714794Y-71158200D01*
X152839787Y-71170510D01*
X152839787Y-71170510D01*
G37*
G36*
X164250787Y-70916510D02*
X164411160Y-70965160D01*
X164411162Y-70965161D01*
X164558966Y-71044163D01*
X164688517Y-71150483D01*
X164794837Y-71280034D01*
X164873839Y-71427838D01*
X164873840Y-71427840D01*
X164922490Y-71588213D01*
X164938916Y-71755000D01*
X164922490Y-71921787D01*
X164873840Y-72082160D01*
X164873839Y-72082162D01*
X164794837Y-72229966D01*
X164688517Y-72359517D01*
X164558966Y-72465837D01*
X164411162Y-72544839D01*
X164411160Y-72544840D01*
X164250787Y-72593490D01*
X164125794Y-72605800D01*
X164042206Y-72605800D01*
X163917213Y-72593490D01*
X163756840Y-72544840D01*
X163756838Y-72544839D01*
X163609034Y-72465837D01*
X163479483Y-72359517D01*
X163373163Y-72229966D01*
X163294161Y-72082162D01*
X163294160Y-72082160D01*
X163245510Y-71921787D01*
X163229084Y-71755000D01*
X163245510Y-71588213D01*
X163294160Y-71427840D01*
X163294161Y-71427838D01*
X163373163Y-71280034D01*
X163479483Y-71150483D01*
X163609034Y-71044163D01*
X163756838Y-70965161D01*
X163756840Y-70965160D01*
X163917213Y-70916510D01*
X164042206Y-70904200D01*
X164125794Y-70904200D01*
X164250787Y-70916510D01*
X164250787Y-70916510D01*
G37*
G36*
X171870787Y-70916510D02*
X172031160Y-70965160D01*
X172031162Y-70965161D01*
X172178966Y-71044163D01*
X172308517Y-71150483D01*
X172414837Y-71280034D01*
X172493839Y-71427838D01*
X172493840Y-71427840D01*
X172542490Y-71588213D01*
X172558916Y-71755000D01*
X172542490Y-71921787D01*
X172493840Y-72082160D01*
X172493839Y-72082162D01*
X172414837Y-72229966D01*
X172308517Y-72359517D01*
X172178966Y-72465837D01*
X172031162Y-72544839D01*
X172031160Y-72544840D01*
X171870787Y-72593490D01*
X171745794Y-72605800D01*
X171662206Y-72605800D01*
X171537213Y-72593490D01*
X171376840Y-72544840D01*
X171376838Y-72544839D01*
X171229034Y-72465837D01*
X171099483Y-72359517D01*
X170993163Y-72229966D01*
X170914161Y-72082162D01*
X170914160Y-72082160D01*
X170865510Y-71921787D01*
X170849084Y-71755000D01*
X170865510Y-71588213D01*
X170914160Y-71427840D01*
X170914161Y-71427838D01*
X170993163Y-71280034D01*
X171099483Y-71150483D01*
X171229034Y-71044163D01*
X171376838Y-70965161D01*
X171376840Y-70965160D01*
X171537213Y-70916510D01*
X171662206Y-70904200D01*
X171745794Y-70904200D01*
X171870787Y-70916510D01*
X171870787Y-70916510D01*
G37*
G36*
X182655507Y-69969582D02*
X182846740Y-70048793D01*
X182934960Y-70107740D01*
X183018849Y-70163793D01*
X183165207Y-70310151D01*
X183165209Y-70310154D01*
X183280207Y-70482260D01*
X183359418Y-70673493D01*
X183399800Y-70876505D01*
X183399800Y-71083495D01*
X183359418Y-71286507D01*
X183280207Y-71477740D01*
X183242592Y-71534034D01*
X183165207Y-71649849D01*
X183018849Y-71796207D01*
X183018846Y-71796209D01*
X182846740Y-71911207D01*
X182655507Y-71990418D01*
X182452495Y-72030800D01*
X182245505Y-72030800D01*
X182042493Y-71990418D01*
X181851260Y-71911207D01*
X181679154Y-71796209D01*
X181679151Y-71796207D01*
X181532793Y-71649849D01*
X181455408Y-71534034D01*
X181417793Y-71477740D01*
X181338582Y-71286507D01*
X181298200Y-71083495D01*
X181298200Y-70876505D01*
X181338582Y-70673493D01*
X181417793Y-70482260D01*
X181532791Y-70310154D01*
X181532793Y-70310151D01*
X181679151Y-70163793D01*
X181763040Y-70107740D01*
X181851260Y-70048793D01*
X182042493Y-69969582D01*
X182245505Y-69929200D01*
X182452495Y-69929200D01*
X182655507Y-69969582D01*
X182655507Y-69969582D01*
G37*
G36*
X159898229Y-70140854D02*
X160028754Y-70166817D01*
X160192689Y-70234721D01*
X160340227Y-70333303D01*
X160465697Y-70458773D01*
X160564279Y-70606311D01*
X160632183Y-70770246D01*
X160648282Y-70851183D01*
X160661277Y-70916510D01*
X160666800Y-70944279D01*
X160666800Y-71121721D01*
X160632183Y-71295754D01*
X160564279Y-71459689D01*
X160465697Y-71607227D01*
X160340227Y-71732697D01*
X160192689Y-71831279D01*
X160028754Y-71899183D01*
X159915120Y-71921786D01*
X159854722Y-71933800D01*
X159677278Y-71933800D01*
X159616880Y-71921786D01*
X159503246Y-71899183D01*
X159339311Y-71831279D01*
X159191773Y-71732697D01*
X159066303Y-71607227D01*
X158967721Y-71459689D01*
X158899817Y-71295754D01*
X158865200Y-71121721D01*
X158865200Y-70944279D01*
X158870724Y-70916510D01*
X158883718Y-70851183D01*
X158899817Y-70770246D01*
X158967721Y-70606311D01*
X159066303Y-70458773D01*
X159191773Y-70333303D01*
X159339311Y-70234721D01*
X159503246Y-70166817D01*
X159633771Y-70140854D01*
X159677278Y-70132200D01*
X159854722Y-70132200D01*
X159898229Y-70140854D01*
X159898229Y-70140854D01*
G37*
G36*
X185495507Y-68599582D02*
X185686740Y-68678793D01*
X185805525Y-68758163D01*
X185858849Y-68793793D01*
X186005207Y-68940151D01*
X186005209Y-68940154D01*
X186120207Y-69112260D01*
X186199418Y-69303493D01*
X186239800Y-69506505D01*
X186239800Y-69713495D01*
X186199418Y-69916507D01*
X186120207Y-70107740D01*
X186072034Y-70179835D01*
X186005207Y-70279849D01*
X185858849Y-70426207D01*
X185858846Y-70426209D01*
X185686740Y-70541207D01*
X185495507Y-70620418D01*
X185292495Y-70660800D01*
X185085505Y-70660800D01*
X184882493Y-70620418D01*
X184691260Y-70541207D01*
X184519154Y-70426209D01*
X184519151Y-70426207D01*
X184372793Y-70279849D01*
X184305966Y-70179835D01*
X184257793Y-70107740D01*
X184178582Y-69916507D01*
X184138200Y-69713495D01*
X184138200Y-69506505D01*
X184178582Y-69303493D01*
X184257793Y-69112260D01*
X184372791Y-68940154D01*
X184372793Y-68940151D01*
X184519151Y-68793793D01*
X184572475Y-68758163D01*
X184691260Y-68678793D01*
X184882493Y-68599582D01*
X185085505Y-68559200D01*
X185292495Y-68559200D01*
X185495507Y-68599582D01*
X185495507Y-68599582D01*
G37*
G36*
X145219787Y-68630510D02*
X145380160Y-68679160D01*
X145380162Y-68679161D01*
X145527966Y-68758163D01*
X145657517Y-68864483D01*
X145763837Y-68994034D01*
X145837155Y-69131204D01*
X145842840Y-69141840D01*
X145891490Y-69302213D01*
X145907916Y-69469000D01*
X145891490Y-69635787D01*
X145854611Y-69757356D01*
X145842839Y-69796162D01*
X145763837Y-69943966D01*
X145657517Y-70073517D01*
X145527966Y-70179837D01*
X145425282Y-70234722D01*
X145380160Y-70258840D01*
X145219787Y-70307490D01*
X145094794Y-70319800D01*
X144211206Y-70319800D01*
X144086213Y-70307490D01*
X143925840Y-70258840D01*
X143880718Y-70234722D01*
X143778034Y-70179837D01*
X143648483Y-70073517D01*
X143542163Y-69943966D01*
X143463161Y-69796162D01*
X143451389Y-69757356D01*
X143414510Y-69635787D01*
X143398084Y-69469000D01*
X143414510Y-69302213D01*
X143463160Y-69141840D01*
X143468845Y-69131204D01*
X143542163Y-68994034D01*
X143648483Y-68864483D01*
X143778034Y-68758163D01*
X143925838Y-68679161D01*
X143925840Y-68679160D01*
X144086213Y-68630510D01*
X144211206Y-68618200D01*
X145094794Y-68618200D01*
X145219787Y-68630510D01*
X145219787Y-68630510D01*
G37*
G36*
X152839787Y-68630510D02*
X153000160Y-68679160D01*
X153000162Y-68679161D01*
X153147966Y-68758163D01*
X153277517Y-68864483D01*
X153383837Y-68994034D01*
X153457155Y-69131204D01*
X153462840Y-69141840D01*
X153511490Y-69302213D01*
X153527916Y-69469000D01*
X153511490Y-69635787D01*
X153474611Y-69757356D01*
X153462839Y-69796162D01*
X153383837Y-69943966D01*
X153277517Y-70073517D01*
X153147966Y-70179837D01*
X153045282Y-70234722D01*
X153000160Y-70258840D01*
X152839787Y-70307490D01*
X152714794Y-70319800D01*
X151831206Y-70319800D01*
X151706213Y-70307490D01*
X151545840Y-70258840D01*
X151500718Y-70234722D01*
X151398034Y-70179837D01*
X151268483Y-70073517D01*
X151162163Y-69943966D01*
X151083161Y-69796162D01*
X151071389Y-69757356D01*
X151034510Y-69635787D01*
X151018084Y-69469000D01*
X151034510Y-69302213D01*
X151083160Y-69141840D01*
X151088845Y-69131204D01*
X151162163Y-68994034D01*
X151268483Y-68864483D01*
X151398034Y-68758163D01*
X151545838Y-68679161D01*
X151545840Y-68679160D01*
X151706213Y-68630510D01*
X151831206Y-68618200D01*
X152714794Y-68618200D01*
X152839787Y-68630510D01*
X152839787Y-68630510D01*
G37*
G36*
X176079669Y-68396895D02*
X176234505Y-68461031D01*
X176373854Y-68554140D01*
X176492360Y-68672646D01*
X176585469Y-68811995D01*
X176649605Y-68966831D01*
X176682300Y-69131203D01*
X176682300Y-69298797D01*
X176649605Y-69463169D01*
X176585469Y-69618005D01*
X176492360Y-69757354D01*
X176373854Y-69875860D01*
X176234505Y-69968969D01*
X176079669Y-70033105D01*
X175915297Y-70065800D01*
X175747703Y-70065800D01*
X175583331Y-70033105D01*
X175428495Y-69968969D01*
X175289146Y-69875860D01*
X175170640Y-69757354D01*
X175077531Y-69618005D01*
X175013395Y-69463169D01*
X174980700Y-69298797D01*
X174980700Y-69131203D01*
X175013395Y-68966831D01*
X175077531Y-68811995D01*
X175170640Y-68672646D01*
X175289146Y-68554140D01*
X175428495Y-68461031D01*
X175583331Y-68396895D01*
X175747703Y-68364200D01*
X175915297Y-68364200D01*
X176079669Y-68396895D01*
X176079669Y-68396895D01*
G37*
G36*
X171870787Y-68376510D02*
X172031160Y-68425160D01*
X172031162Y-68425161D01*
X172178966Y-68504163D01*
X172308517Y-68610483D01*
X172414837Y-68740034D01*
X172493839Y-68887838D01*
X172493840Y-68887840D01*
X172542490Y-69048213D01*
X172558916Y-69215000D01*
X172542490Y-69381787D01*
X172493840Y-69542160D01*
X172493839Y-69542162D01*
X172414837Y-69689966D01*
X172308517Y-69819517D01*
X172178966Y-69925837D01*
X172031162Y-70004839D01*
X172031160Y-70004840D01*
X171870787Y-70053490D01*
X171745794Y-70065800D01*
X171662206Y-70065800D01*
X171537213Y-70053490D01*
X171376840Y-70004840D01*
X171376838Y-70004839D01*
X171229034Y-69925837D01*
X171099483Y-69819517D01*
X170993163Y-69689966D01*
X170914161Y-69542162D01*
X170914160Y-69542160D01*
X170865510Y-69381787D01*
X170849084Y-69215000D01*
X170865510Y-69048213D01*
X170914160Y-68887840D01*
X170914161Y-68887838D01*
X170993163Y-68740034D01*
X171099483Y-68610483D01*
X171229034Y-68504163D01*
X171376838Y-68425161D01*
X171376840Y-68425160D01*
X171537213Y-68376510D01*
X171662206Y-68364200D01*
X171745794Y-68364200D01*
X171870787Y-68376510D01*
X171870787Y-68376510D01*
G37*
G36*
X164250787Y-68376510D02*
X164411160Y-68425160D01*
X164411162Y-68425161D01*
X164558966Y-68504163D01*
X164688517Y-68610483D01*
X164794837Y-68740034D01*
X164873839Y-68887838D01*
X164873840Y-68887840D01*
X164922490Y-69048213D01*
X164938916Y-69215000D01*
X164922490Y-69381787D01*
X164873840Y-69542160D01*
X164873839Y-69542162D01*
X164794837Y-69689966D01*
X164688517Y-69819517D01*
X164558966Y-69925837D01*
X164411162Y-70004839D01*
X164411160Y-70004840D01*
X164250787Y-70053490D01*
X164125794Y-70065800D01*
X164042206Y-70065800D01*
X163917213Y-70053490D01*
X163756840Y-70004840D01*
X163756838Y-70004839D01*
X163609034Y-69925837D01*
X163479483Y-69819517D01*
X163373163Y-69689966D01*
X163294161Y-69542162D01*
X163294160Y-69542160D01*
X163245510Y-69381787D01*
X163229084Y-69215000D01*
X163245510Y-69048213D01*
X163294160Y-68887840D01*
X163294161Y-68887838D01*
X163373163Y-68740034D01*
X163479483Y-68610483D01*
X163609034Y-68504163D01*
X163756838Y-68425161D01*
X163756840Y-68425160D01*
X163917213Y-68376510D01*
X164042206Y-68364200D01*
X164125794Y-68364200D01*
X164250787Y-68376510D01*
X164250787Y-68376510D01*
G37*
G36*
X136053748Y-68129426D02*
X136053750Y-68129427D01*
X136053751Y-68129427D01*
X136199591Y-68189836D01*
X136274916Y-68240167D01*
X136330847Y-68277539D01*
X136442461Y-68389153D01*
X136442463Y-68389156D01*
X136442464Y-68389157D01*
X136519309Y-68504163D01*
X136530165Y-68520411D01*
X136590574Y-68666252D01*
X136621370Y-68821071D01*
X136621370Y-68978929D01*
X136605998Y-69056209D01*
X136590573Y-69133751D01*
X136530164Y-69279591D01*
X136442464Y-69410843D01*
X136442461Y-69410847D01*
X136330847Y-69522461D01*
X136330844Y-69522463D01*
X136330843Y-69522464D01*
X136199591Y-69610164D01*
X136053751Y-69670573D01*
X136053750Y-69670573D01*
X136053748Y-69670574D01*
X135898929Y-69701370D01*
X135741071Y-69701370D01*
X135586252Y-69670574D01*
X135586250Y-69670573D01*
X135586249Y-69670573D01*
X135440409Y-69610164D01*
X135309157Y-69522464D01*
X135309156Y-69522463D01*
X135309153Y-69522461D01*
X135197539Y-69410847D01*
X135197536Y-69410843D01*
X135109836Y-69279591D01*
X135049427Y-69133751D01*
X135034003Y-69056209D01*
X135018630Y-68978929D01*
X135018630Y-68821071D01*
X135049426Y-68666252D01*
X135109835Y-68520411D01*
X135120692Y-68504163D01*
X135197536Y-68389157D01*
X135197537Y-68389156D01*
X135197539Y-68389153D01*
X135309153Y-68277539D01*
X135365084Y-68240167D01*
X135440409Y-68189836D01*
X135586249Y-68129427D01*
X135586250Y-68129427D01*
X135586252Y-68129426D01*
X135741071Y-68098630D01*
X135898929Y-68098630D01*
X136053748Y-68129426D01*
X136053748Y-68129426D01*
G37*
G36*
X138653748Y-68129426D02*
X138653750Y-68129427D01*
X138653751Y-68129427D01*
X138799591Y-68189836D01*
X138874916Y-68240167D01*
X138930847Y-68277539D01*
X139042461Y-68389153D01*
X139042463Y-68389156D01*
X139042464Y-68389157D01*
X139119309Y-68504163D01*
X139130165Y-68520411D01*
X139190574Y-68666252D01*
X139221370Y-68821071D01*
X139221370Y-68978929D01*
X139205998Y-69056209D01*
X139190573Y-69133751D01*
X139130164Y-69279591D01*
X139042464Y-69410843D01*
X139042461Y-69410847D01*
X138930847Y-69522461D01*
X138930844Y-69522463D01*
X138930843Y-69522464D01*
X138799591Y-69610164D01*
X138653751Y-69670573D01*
X138653750Y-69670573D01*
X138653748Y-69670574D01*
X138498929Y-69701370D01*
X138341071Y-69701370D01*
X138186252Y-69670574D01*
X138186250Y-69670573D01*
X138186249Y-69670573D01*
X138040409Y-69610164D01*
X137909157Y-69522464D01*
X137909156Y-69522463D01*
X137909153Y-69522461D01*
X137797539Y-69410847D01*
X137797536Y-69410843D01*
X137709836Y-69279591D01*
X137649427Y-69133751D01*
X137634003Y-69056209D01*
X137618630Y-68978929D01*
X137618630Y-68821071D01*
X137649426Y-68666252D01*
X137709835Y-68520411D01*
X137720692Y-68504163D01*
X137797536Y-68389157D01*
X137797537Y-68389156D01*
X137797539Y-68389153D01*
X137909153Y-68277539D01*
X137965084Y-68240167D01*
X138040409Y-68189836D01*
X138186249Y-68129427D01*
X138186250Y-68129427D01*
X138186252Y-68129426D01*
X138341071Y-68098630D01*
X138498929Y-68098630D01*
X138653748Y-68129426D01*
X138653748Y-68129426D01*
G37*
G36*
X182655507Y-67229582D02*
X182846740Y-67308793D01*
X182934960Y-67367740D01*
X183018849Y-67423793D01*
X183165207Y-67570151D01*
X183165209Y-67570154D01*
X183280207Y-67742260D01*
X183359418Y-67933493D01*
X183399800Y-68136505D01*
X183399800Y-68343495D01*
X183359418Y-68546507D01*
X183280207Y-68737740D01*
X183224526Y-68821072D01*
X183165207Y-68909849D01*
X183018849Y-69056207D01*
X183018846Y-69056209D01*
X182846740Y-69171207D01*
X182655507Y-69250418D01*
X182452495Y-69290800D01*
X182245505Y-69290800D01*
X182042493Y-69250418D01*
X181851260Y-69171207D01*
X181679154Y-69056209D01*
X181679151Y-69056207D01*
X181532793Y-68909849D01*
X181473474Y-68821072D01*
X181417793Y-68737740D01*
X181338582Y-68546507D01*
X181298200Y-68343495D01*
X181298200Y-68136505D01*
X181338582Y-67933493D01*
X181417793Y-67742260D01*
X181532791Y-67570154D01*
X181532793Y-67570151D01*
X181679151Y-67423793D01*
X181763040Y-67367740D01*
X181851260Y-67308793D01*
X182042493Y-67229582D01*
X182245505Y-67189200D01*
X182452495Y-67189200D01*
X182655507Y-67229582D01*
X182655507Y-67229582D01*
G37*
G36*
X160395169Y-67173895D02*
X160550005Y-67238031D01*
X160689354Y-67331140D01*
X160807860Y-67449646D01*
X160900969Y-67588995D01*
X160965105Y-67743831D01*
X160997800Y-67908203D01*
X160997800Y-68075797D01*
X160965105Y-68240169D01*
X160900969Y-68395005D01*
X160807860Y-68534354D01*
X160689354Y-68652860D01*
X160550005Y-68745969D01*
X160395169Y-68810105D01*
X160230797Y-68842800D01*
X160063203Y-68842800D01*
X159898831Y-68810105D01*
X159743995Y-68745969D01*
X159604646Y-68652860D01*
X159486140Y-68534354D01*
X159393031Y-68395005D01*
X159328895Y-68240169D01*
X159296200Y-68075797D01*
X159296200Y-67908203D01*
X159328895Y-67743831D01*
X159393031Y-67588995D01*
X159486140Y-67449646D01*
X159604646Y-67331140D01*
X159743995Y-67238031D01*
X159898831Y-67173895D01*
X160063203Y-67141200D01*
X160230797Y-67141200D01*
X160395169Y-67173895D01*
X160395169Y-67173895D01*
G37*
G36*
X185495507Y-65859582D02*
X185686740Y-65938793D01*
X185774960Y-65997740D01*
X185858849Y-66053793D01*
X186005207Y-66200151D01*
X186005209Y-66200154D01*
X186120207Y-66372260D01*
X186199418Y-66563493D01*
X186239800Y-66766505D01*
X186239800Y-66973495D01*
X186199418Y-67176507D01*
X186120207Y-67367740D01*
X186014594Y-67525800D01*
X186005207Y-67539849D01*
X185858849Y-67686207D01*
X185858846Y-67686209D01*
X185686740Y-67801207D01*
X185495507Y-67880418D01*
X185292495Y-67920800D01*
X185085505Y-67920800D01*
X184882493Y-67880418D01*
X184691260Y-67801207D01*
X184519154Y-67686209D01*
X184519151Y-67686207D01*
X184372793Y-67539849D01*
X184363406Y-67525800D01*
X184257793Y-67367740D01*
X184178582Y-67176507D01*
X184138200Y-66973495D01*
X184138200Y-66766505D01*
X184178582Y-66563493D01*
X184257793Y-66372260D01*
X184372791Y-66200154D01*
X184372793Y-66200151D01*
X184519151Y-66053793D01*
X184603040Y-65997740D01*
X184691260Y-65938793D01*
X184882493Y-65859582D01*
X185085505Y-65819200D01*
X185292495Y-65819200D01*
X185495507Y-65859582D01*
X185495507Y-65859582D01*
G37*
G36*
X145219787Y-66090510D02*
X145380160Y-66139160D01*
X145380162Y-66139161D01*
X145527966Y-66218163D01*
X145657517Y-66324483D01*
X145763837Y-66454034D01*
X145815559Y-66550800D01*
X145842840Y-66601840D01*
X145891490Y-66762213D01*
X145907916Y-66929000D01*
X145891490Y-67095787D01*
X145848339Y-67238032D01*
X145842839Y-67256162D01*
X145763837Y-67403966D01*
X145657517Y-67533517D01*
X145527966Y-67639837D01*
X145380162Y-67718839D01*
X145380160Y-67718840D01*
X145219787Y-67767490D01*
X145094794Y-67779800D01*
X144211206Y-67779800D01*
X144086213Y-67767490D01*
X143925840Y-67718840D01*
X143925838Y-67718839D01*
X143778034Y-67639837D01*
X143648483Y-67533517D01*
X143542163Y-67403966D01*
X143463161Y-67256162D01*
X143457661Y-67238032D01*
X143414510Y-67095787D01*
X143398084Y-66929000D01*
X143414510Y-66762213D01*
X143463160Y-66601840D01*
X143490441Y-66550800D01*
X143542163Y-66454034D01*
X143648483Y-66324483D01*
X143778034Y-66218163D01*
X143925838Y-66139161D01*
X143925840Y-66139160D01*
X144086213Y-66090510D01*
X144211206Y-66078200D01*
X145094794Y-66078200D01*
X145219787Y-66090510D01*
X145219787Y-66090510D01*
G37*
G36*
X152839787Y-66090510D02*
X153000160Y-66139160D01*
X153000162Y-66139161D01*
X153147966Y-66218163D01*
X153277517Y-66324483D01*
X153383837Y-66454034D01*
X153435559Y-66550800D01*
X153462840Y-66601840D01*
X153511490Y-66762213D01*
X153527916Y-66929000D01*
X153511490Y-67095787D01*
X153468339Y-67238032D01*
X153462839Y-67256162D01*
X153383837Y-67403966D01*
X153277517Y-67533517D01*
X153147966Y-67639837D01*
X153000162Y-67718839D01*
X153000160Y-67718840D01*
X152839787Y-67767490D01*
X152714794Y-67779800D01*
X151831206Y-67779800D01*
X151706213Y-67767490D01*
X151545840Y-67718840D01*
X151545838Y-67718839D01*
X151398034Y-67639837D01*
X151268483Y-67533517D01*
X151162163Y-67403966D01*
X151083161Y-67256162D01*
X151077661Y-67238032D01*
X151034510Y-67095787D01*
X151018084Y-66929000D01*
X151034510Y-66762213D01*
X151083160Y-66601840D01*
X151110441Y-66550800D01*
X151162163Y-66454034D01*
X151268483Y-66324483D01*
X151398034Y-66218163D01*
X151545838Y-66139161D01*
X151545840Y-66139160D01*
X151706213Y-66090510D01*
X151831206Y-66078200D01*
X152714794Y-66078200D01*
X152839787Y-66090510D01*
X152839787Y-66090510D01*
G37*
G36*
X138653748Y-66029426D02*
X138653750Y-66029427D01*
X138653751Y-66029427D01*
X138799591Y-66089836D01*
X138930843Y-66177536D01*
X138930847Y-66177539D01*
X139042461Y-66289153D01*
X139042463Y-66289156D01*
X139042464Y-66289157D01*
X139097992Y-66372260D01*
X139130165Y-66420411D01*
X139190574Y-66566252D01*
X139221370Y-66721071D01*
X139221370Y-66878929D01*
X139190574Y-67033748D01*
X139131442Y-67176507D01*
X139130164Y-67179591D01*
X139042464Y-67310843D01*
X139042461Y-67310847D01*
X138930847Y-67422461D01*
X138930844Y-67422463D01*
X138930843Y-67422464D01*
X138799591Y-67510164D01*
X138799590Y-67510165D01*
X138799589Y-67510165D01*
X138743212Y-67533517D01*
X138653751Y-67570573D01*
X138653750Y-67570573D01*
X138653748Y-67570574D01*
X138498929Y-67601370D01*
X138341071Y-67601370D01*
X138186252Y-67570574D01*
X138186250Y-67570573D01*
X138186249Y-67570573D01*
X138096788Y-67533517D01*
X138040411Y-67510165D01*
X138040410Y-67510165D01*
X138040409Y-67510164D01*
X137909157Y-67422464D01*
X137909156Y-67422463D01*
X137909153Y-67422461D01*
X137797539Y-67310847D01*
X137797536Y-67310843D01*
X137709836Y-67179591D01*
X137708559Y-67176507D01*
X137649426Y-67033748D01*
X137618630Y-66878929D01*
X137618630Y-66721071D01*
X137649426Y-66566252D01*
X137709835Y-66420411D01*
X137742009Y-66372260D01*
X137797536Y-66289157D01*
X137797537Y-66289156D01*
X137797539Y-66289153D01*
X137909153Y-66177539D01*
X137909157Y-66177536D01*
X138040409Y-66089836D01*
X138186249Y-66029427D01*
X138186250Y-66029427D01*
X138186252Y-66029426D01*
X138341071Y-65998630D01*
X138498929Y-65998630D01*
X138653748Y-66029426D01*
X138653748Y-66029426D01*
G37*
G36*
X136053748Y-66029426D02*
X136053750Y-66029427D01*
X136053751Y-66029427D01*
X136199591Y-66089836D01*
X136330843Y-66177536D01*
X136330847Y-66177539D01*
X136442461Y-66289153D01*
X136442463Y-66289156D01*
X136442464Y-66289157D01*
X136497992Y-66372260D01*
X136530165Y-66420411D01*
X136590574Y-66566252D01*
X136621370Y-66721071D01*
X136621370Y-66878929D01*
X136590574Y-67033748D01*
X136531442Y-67176507D01*
X136530164Y-67179591D01*
X136442464Y-67310843D01*
X136442461Y-67310847D01*
X136330847Y-67422461D01*
X136330844Y-67422463D01*
X136330843Y-67422464D01*
X136199591Y-67510164D01*
X136199590Y-67510165D01*
X136199589Y-67510165D01*
X136143212Y-67533517D01*
X136053751Y-67570573D01*
X136053750Y-67570573D01*
X136053748Y-67570574D01*
X135898929Y-67601370D01*
X135741071Y-67601370D01*
X135586252Y-67570574D01*
X135586250Y-67570573D01*
X135586249Y-67570573D01*
X135496788Y-67533517D01*
X135440411Y-67510165D01*
X135440410Y-67510165D01*
X135440409Y-67510164D01*
X135309157Y-67422464D01*
X135309156Y-67422463D01*
X135309153Y-67422461D01*
X135197539Y-67310847D01*
X135197536Y-67310843D01*
X135109836Y-67179591D01*
X135108559Y-67176507D01*
X135049426Y-67033748D01*
X135018630Y-66878929D01*
X135018630Y-66721071D01*
X135049426Y-66566252D01*
X135109835Y-66420411D01*
X135142009Y-66372260D01*
X135197536Y-66289157D01*
X135197537Y-66289156D01*
X135197539Y-66289153D01*
X135309153Y-66177539D01*
X135309157Y-66177536D01*
X135440409Y-66089836D01*
X135586249Y-66029427D01*
X135586250Y-66029427D01*
X135586252Y-66029426D01*
X135741071Y-65998630D01*
X135898929Y-65998630D01*
X136053748Y-66029426D01*
X136053748Y-66029426D01*
G37*
G36*
X171870787Y-65836510D02*
X172031160Y-65885160D01*
X172031162Y-65885161D01*
X172178966Y-65964163D01*
X172308517Y-66070483D01*
X172414837Y-66200034D01*
X172493839Y-66347838D01*
X172493840Y-66347840D01*
X172542490Y-66508213D01*
X172558916Y-66675000D01*
X172542490Y-66841787D01*
X172493840Y-67002160D01*
X172493839Y-67002162D01*
X172414837Y-67149966D01*
X172308517Y-67279517D01*
X172178966Y-67385837D01*
X172059590Y-67449644D01*
X172031160Y-67464840D01*
X171870787Y-67513490D01*
X171745794Y-67525800D01*
X171662206Y-67525800D01*
X171537213Y-67513490D01*
X171376840Y-67464840D01*
X171348410Y-67449644D01*
X171229034Y-67385837D01*
X171099483Y-67279517D01*
X170993163Y-67149966D01*
X170914161Y-67002162D01*
X170914160Y-67002160D01*
X170865510Y-66841787D01*
X170849084Y-66675000D01*
X170865510Y-66508213D01*
X170914160Y-66347840D01*
X170914161Y-66347838D01*
X170993163Y-66200034D01*
X171099483Y-66070483D01*
X171229034Y-65964163D01*
X171376838Y-65885161D01*
X171376840Y-65885160D01*
X171537213Y-65836510D01*
X171662206Y-65824200D01*
X171745794Y-65824200D01*
X171870787Y-65836510D01*
X171870787Y-65836510D01*
G37*
G36*
X164250787Y-65836510D02*
X164411160Y-65885160D01*
X164411162Y-65885161D01*
X164558966Y-65964163D01*
X164688517Y-66070483D01*
X164794837Y-66200034D01*
X164873839Y-66347838D01*
X164873840Y-66347840D01*
X164922490Y-66508213D01*
X164938916Y-66675000D01*
X164922490Y-66841787D01*
X164873840Y-67002160D01*
X164873839Y-67002162D01*
X164794837Y-67149966D01*
X164688517Y-67279517D01*
X164558966Y-67385837D01*
X164439590Y-67449644D01*
X164411160Y-67464840D01*
X164250787Y-67513490D01*
X164125794Y-67525800D01*
X164042206Y-67525800D01*
X163917213Y-67513490D01*
X163756840Y-67464840D01*
X163728410Y-67449644D01*
X163609034Y-67385837D01*
X163479483Y-67279517D01*
X163373163Y-67149966D01*
X163294161Y-67002162D01*
X163294160Y-67002160D01*
X163245510Y-66841787D01*
X163229084Y-66675000D01*
X163245510Y-66508213D01*
X163294160Y-66347840D01*
X163294161Y-66347838D01*
X163373163Y-66200034D01*
X163479483Y-66070483D01*
X163609034Y-65964163D01*
X163756838Y-65885161D01*
X163756840Y-65885160D01*
X163917213Y-65836510D01*
X164042206Y-65824200D01*
X164125794Y-65824200D01*
X164250787Y-65836510D01*
X164250787Y-65836510D01*
G37*
G36*
X132429318Y-63745277D02*
X132545292Y-63768346D01*
X132873027Y-63904098D01*
X133167982Y-64101180D01*
X133418820Y-64352018D01*
X133615902Y-64646973D01*
X133751654Y-64974708D01*
X133763270Y-65033104D01*
X133818381Y-65310165D01*
X133820860Y-65322631D01*
X133820860Y-65677369D01*
X133751654Y-66025292D01*
X133615902Y-66353027D01*
X133418820Y-66647982D01*
X133167982Y-66898820D01*
X132873027Y-67095902D01*
X132545292Y-67231654D01*
X132429318Y-67254723D01*
X132197371Y-67300860D01*
X131842629Y-67300860D01*
X131610682Y-67254723D01*
X131494708Y-67231654D01*
X131166973Y-67095902D01*
X130872018Y-66898820D01*
X130621180Y-66647982D01*
X130424098Y-66353027D01*
X130288346Y-66025292D01*
X130219140Y-65677369D01*
X130219140Y-65322631D01*
X130221620Y-65310165D01*
X130276730Y-65033104D01*
X130288346Y-64974708D01*
X130424098Y-64646973D01*
X130621180Y-64352018D01*
X130872018Y-64101180D01*
X131166973Y-63904098D01*
X131494708Y-63768346D01*
X131610682Y-63745277D01*
X131842629Y-63699140D01*
X132197371Y-63699140D01*
X132429318Y-63745277D01*
X132429318Y-63745277D01*
G37*
G36*
X182655507Y-64489582D02*
X182846740Y-64568793D01*
X183017687Y-64683016D01*
X183018849Y-64683793D01*
X183165207Y-64830151D01*
X183165209Y-64830154D01*
X183280207Y-65002260D01*
X183359418Y-65193493D01*
X183399800Y-65396505D01*
X183399800Y-65603495D01*
X183359418Y-65806507D01*
X183280207Y-65997740D01*
X183242753Y-66053793D01*
X183165207Y-66169849D01*
X183018849Y-66316207D01*
X183018846Y-66316209D01*
X182846740Y-66431207D01*
X182655507Y-66510418D01*
X182452495Y-66550800D01*
X182245505Y-66550800D01*
X182042493Y-66510418D01*
X181851260Y-66431207D01*
X181679154Y-66316209D01*
X181679151Y-66316207D01*
X181532793Y-66169849D01*
X181455247Y-66053793D01*
X181417793Y-65997740D01*
X181338582Y-65806507D01*
X181298200Y-65603495D01*
X181298200Y-65396505D01*
X181338582Y-65193493D01*
X181417793Y-65002260D01*
X181532791Y-64830154D01*
X181532793Y-64830151D01*
X181679151Y-64683793D01*
X181680313Y-64683016D01*
X181851260Y-64568793D01*
X182042493Y-64489582D01*
X182245505Y-64449200D01*
X182452495Y-64449200D01*
X182655507Y-64489582D01*
X182655507Y-64489582D01*
G37*
G36*
X138653748Y-63829426D02*
X138653750Y-63829427D01*
X138653751Y-63829427D01*
X138799591Y-63889836D01*
X138930843Y-63977536D01*
X138930847Y-63977539D01*
X139042461Y-64089153D01*
X139042463Y-64089156D01*
X139042464Y-64089157D01*
X139050500Y-64101183D01*
X139130165Y-64220411D01*
X139154403Y-64278928D01*
X139163872Y-64301786D01*
X139190574Y-64366252D01*
X139221370Y-64521071D01*
X139221370Y-64678929D01*
X139191290Y-64830151D01*
X139190573Y-64833751D01*
X139178057Y-64863968D01*
X139133900Y-64970573D01*
X139130164Y-64979591D01*
X139072561Y-65065800D01*
X139042461Y-65110847D01*
X138930847Y-65222461D01*
X138930844Y-65222463D01*
X138930843Y-65222464D01*
X138799591Y-65310164D01*
X138653751Y-65370573D01*
X138653750Y-65370573D01*
X138653748Y-65370574D01*
X138498929Y-65401370D01*
X138341071Y-65401370D01*
X138186252Y-65370574D01*
X138186250Y-65370573D01*
X138186249Y-65370573D01*
X138040409Y-65310164D01*
X137909157Y-65222464D01*
X137909156Y-65222463D01*
X137909153Y-65222461D01*
X137797539Y-65110847D01*
X137767439Y-65065800D01*
X137709836Y-64979591D01*
X137706101Y-64970573D01*
X137661943Y-64863968D01*
X137649427Y-64833751D01*
X137648711Y-64830151D01*
X137618630Y-64678929D01*
X137618630Y-64521071D01*
X137649426Y-64366252D01*
X137676129Y-64301786D01*
X137685597Y-64278928D01*
X137709835Y-64220411D01*
X137789501Y-64101183D01*
X137797536Y-64089157D01*
X137797537Y-64089156D01*
X137797539Y-64089153D01*
X137909153Y-63977539D01*
X137909157Y-63977536D01*
X138040409Y-63889836D01*
X138186249Y-63829427D01*
X138186250Y-63829427D01*
X138186252Y-63829426D01*
X138341071Y-63798630D01*
X138498929Y-63798630D01*
X138653748Y-63829426D01*
X138653748Y-63829426D01*
G37*
G36*
X145903800Y-65239800D02*
X143402200Y-65239800D01*
X143402200Y-63538200D01*
X145903800Y-63538200D01*
X145903800Y-65239800D01*
X145903800Y-65239800D01*
G37*
G36*
X152839787Y-63550510D02*
X153000160Y-63599160D01*
X153000162Y-63599161D01*
X153147966Y-63678163D01*
X153277517Y-63784483D01*
X153383837Y-63914034D01*
X153443953Y-64026505D01*
X153462840Y-64061840D01*
X153511490Y-64222213D01*
X153527916Y-64389000D01*
X153511490Y-64555787D01*
X153462840Y-64716160D01*
X153462839Y-64716162D01*
X153383837Y-64863966D01*
X153277517Y-64993517D01*
X153147966Y-65099837D01*
X153072043Y-65140418D01*
X153000160Y-65178840D01*
X152839787Y-65227490D01*
X152714794Y-65239800D01*
X151831206Y-65239800D01*
X151706213Y-65227490D01*
X151545840Y-65178840D01*
X151473957Y-65140418D01*
X151398034Y-65099837D01*
X151268483Y-64993517D01*
X151162163Y-64863966D01*
X151083161Y-64716162D01*
X151083160Y-64716160D01*
X151034510Y-64555787D01*
X151018084Y-64389000D01*
X151034510Y-64222213D01*
X151083160Y-64061840D01*
X151102047Y-64026505D01*
X151162163Y-63914034D01*
X151268483Y-63784483D01*
X151398034Y-63678163D01*
X151545838Y-63599161D01*
X151545840Y-63599160D01*
X151706213Y-63550510D01*
X151831206Y-63538200D01*
X152714794Y-63538200D01*
X152839787Y-63550510D01*
X152839787Y-63550510D01*
G37*
G36*
X185495507Y-63119582D02*
X185686740Y-63198793D01*
X185774960Y-63257740D01*
X185858849Y-63313793D01*
X186005207Y-63460151D01*
X186005209Y-63460154D01*
X186120207Y-63632260D01*
X186199418Y-63823493D01*
X186239800Y-64026505D01*
X186239800Y-64233495D01*
X186199418Y-64436507D01*
X186120207Y-64627740D01*
X186033601Y-64757354D01*
X186005207Y-64799849D01*
X185858849Y-64946207D01*
X185858846Y-64946209D01*
X185686740Y-65061207D01*
X185495507Y-65140418D01*
X185292495Y-65180800D01*
X185085505Y-65180800D01*
X184882493Y-65140418D01*
X184691260Y-65061207D01*
X184519154Y-64946209D01*
X184519151Y-64946207D01*
X184372793Y-64799849D01*
X184344399Y-64757354D01*
X184257793Y-64627740D01*
X184178582Y-64436507D01*
X184138200Y-64233495D01*
X184138200Y-64026505D01*
X184178582Y-63823493D01*
X184257793Y-63632260D01*
X184372791Y-63460154D01*
X184372793Y-63460151D01*
X184519151Y-63313793D01*
X184603040Y-63257740D01*
X184691260Y-63198793D01*
X184882493Y-63119582D01*
X185085505Y-63079200D01*
X185292495Y-63079200D01*
X185495507Y-63119582D01*
X185495507Y-63119582D01*
G37*
G36*
X176079669Y-63396895D02*
X176234505Y-63461031D01*
X176373854Y-63554140D01*
X176492360Y-63672646D01*
X176585469Y-63811995D01*
X176649605Y-63966831D01*
X176682300Y-64131203D01*
X176682300Y-64298797D01*
X176649605Y-64463169D01*
X176585469Y-64618005D01*
X176492360Y-64757354D01*
X176373854Y-64875860D01*
X176234505Y-64968969D01*
X176079669Y-65033105D01*
X175915297Y-65065800D01*
X175747703Y-65065800D01*
X175583331Y-65033105D01*
X175428495Y-64968969D01*
X175289146Y-64875860D01*
X175170640Y-64757354D01*
X175077531Y-64618005D01*
X175013395Y-64463169D01*
X174980700Y-64298797D01*
X174980700Y-64131203D01*
X175013395Y-63966831D01*
X175077531Y-63811995D01*
X175170640Y-63672646D01*
X175289146Y-63554140D01*
X175428495Y-63461031D01*
X175583331Y-63396895D01*
X175747703Y-63364200D01*
X175915297Y-63364200D01*
X176079669Y-63396895D01*
X176079669Y-63396895D01*
G37*
G36*
X136053748Y-63429426D02*
X136053750Y-63429427D01*
X136053751Y-63429427D01*
X136199591Y-63489836D01*
X136328854Y-63576207D01*
X136330847Y-63577539D01*
X136442461Y-63689153D01*
X136442463Y-63689156D01*
X136442464Y-63689157D01*
X136521766Y-63807840D01*
X136530165Y-63820411D01*
X136590574Y-63966252D01*
X136621370Y-64121071D01*
X136621370Y-64278929D01*
X136604001Y-64366249D01*
X136590573Y-64433751D01*
X136530164Y-64579591D01*
X136460538Y-64683793D01*
X136442461Y-64710847D01*
X136330847Y-64822461D01*
X136330844Y-64822463D01*
X136330843Y-64822464D01*
X136199591Y-64910164D01*
X136199590Y-64910165D01*
X136199589Y-64910165D01*
X136164160Y-64924840D01*
X136053751Y-64970573D01*
X136053750Y-64970573D01*
X136053748Y-64970574D01*
X135898929Y-65001370D01*
X135741071Y-65001370D01*
X135586252Y-64970574D01*
X135586250Y-64970573D01*
X135586249Y-64970573D01*
X135475840Y-64924840D01*
X135440411Y-64910165D01*
X135440410Y-64910165D01*
X135440409Y-64910164D01*
X135309157Y-64822464D01*
X135309156Y-64822463D01*
X135309153Y-64822461D01*
X135197539Y-64710847D01*
X135179462Y-64683793D01*
X135109836Y-64579591D01*
X135049427Y-64433751D01*
X135036000Y-64366249D01*
X135018630Y-64278929D01*
X135018630Y-64121071D01*
X135049426Y-63966252D01*
X135109835Y-63820411D01*
X135118235Y-63807840D01*
X135197536Y-63689157D01*
X135197537Y-63689156D01*
X135197539Y-63689153D01*
X135309153Y-63577539D01*
X135311146Y-63576207D01*
X135440409Y-63489836D01*
X135586249Y-63429427D01*
X135586250Y-63429427D01*
X135586252Y-63429426D01*
X135741071Y-63398630D01*
X135898929Y-63398630D01*
X136053748Y-63429426D01*
X136053748Y-63429426D01*
G37*
G36*
X171870787Y-63296510D02*
X172031160Y-63345160D01*
X172031162Y-63345161D01*
X172178966Y-63424163D01*
X172308517Y-63530483D01*
X172414837Y-63660034D01*
X172488917Y-63798630D01*
X172493840Y-63807840D01*
X172542490Y-63968213D01*
X172558916Y-64135000D01*
X172542490Y-64301787D01*
X172497771Y-64449200D01*
X172493839Y-64462162D01*
X172414837Y-64609966D01*
X172308517Y-64739517D01*
X172178966Y-64845837D01*
X172058617Y-64910164D01*
X172031160Y-64924840D01*
X171870787Y-64973490D01*
X171745794Y-64985800D01*
X171662206Y-64985800D01*
X171537213Y-64973490D01*
X171376840Y-64924840D01*
X171349383Y-64910164D01*
X171229034Y-64845837D01*
X171099483Y-64739517D01*
X170993163Y-64609966D01*
X170914161Y-64462162D01*
X170910229Y-64449200D01*
X170865510Y-64301787D01*
X170849084Y-64135000D01*
X170865510Y-63968213D01*
X170914160Y-63807840D01*
X170919083Y-63798630D01*
X170993163Y-63660034D01*
X171099483Y-63530483D01*
X171229034Y-63424163D01*
X171376838Y-63345161D01*
X171376840Y-63345160D01*
X171537213Y-63296510D01*
X171662206Y-63284200D01*
X171745794Y-63284200D01*
X171870787Y-63296510D01*
X171870787Y-63296510D01*
G37*
G36*
X164250787Y-63296510D02*
X164411160Y-63345160D01*
X164411162Y-63345161D01*
X164558966Y-63424163D01*
X164688517Y-63530483D01*
X164794837Y-63660034D01*
X164868917Y-63798630D01*
X164873840Y-63807840D01*
X164922490Y-63968213D01*
X164938916Y-64135000D01*
X164922490Y-64301787D01*
X164877771Y-64449200D01*
X164873839Y-64462162D01*
X164794837Y-64609966D01*
X164688517Y-64739517D01*
X164558966Y-64845837D01*
X164438617Y-64910164D01*
X164411160Y-64924840D01*
X164250787Y-64973490D01*
X164125794Y-64985800D01*
X164042206Y-64985800D01*
X163917213Y-64973490D01*
X163756840Y-64924840D01*
X163729383Y-64910164D01*
X163609034Y-64845837D01*
X163479483Y-64739517D01*
X163373163Y-64609966D01*
X163294161Y-64462162D01*
X163290229Y-64449200D01*
X163245510Y-64301787D01*
X163229084Y-64135000D01*
X163245510Y-63968213D01*
X163294160Y-63807840D01*
X163299083Y-63798630D01*
X163373163Y-63660034D01*
X163479483Y-63530483D01*
X163609034Y-63424163D01*
X163756838Y-63345161D01*
X163756840Y-63345160D01*
X163917213Y-63296510D01*
X164042206Y-63284200D01*
X164125794Y-63284200D01*
X164250787Y-63296510D01*
X164250787Y-63296510D01*
G37*
G36*
X160395169Y-62173895D02*
X160550005Y-62238031D01*
X160689354Y-62331140D01*
X160807860Y-62449646D01*
X160900969Y-62588995D01*
X160965105Y-62743831D01*
X160997800Y-62908203D01*
X160997800Y-63075797D01*
X160965105Y-63240169D01*
X160900969Y-63395005D01*
X160807860Y-63534354D01*
X160689354Y-63652860D01*
X160550005Y-63745969D01*
X160395169Y-63810105D01*
X160230797Y-63842800D01*
X160063203Y-63842800D01*
X159898831Y-63810105D01*
X159743995Y-63745969D01*
X159604646Y-63652860D01*
X159486140Y-63534354D01*
X159393031Y-63395005D01*
X159328895Y-63240169D01*
X159296200Y-63075797D01*
X159296200Y-62908203D01*
X159328895Y-62743831D01*
X159393031Y-62588995D01*
X159486140Y-62449646D01*
X159604646Y-62331140D01*
X159743995Y-62238031D01*
X159898831Y-62173895D01*
X160063203Y-62141200D01*
X160230797Y-62141200D01*
X160395169Y-62173895D01*
X160395169Y-62173895D01*
G37*
G36*
X182655507Y-61749582D02*
X182846740Y-61828793D01*
X182934960Y-61887740D01*
X183018849Y-61943793D01*
X183165207Y-62090151D01*
X183165209Y-62090154D01*
X183280207Y-62262260D01*
X183359418Y-62453493D01*
X183399800Y-62656505D01*
X183399800Y-62863495D01*
X183359418Y-63066507D01*
X183280207Y-63257740D01*
X183186067Y-63398630D01*
X183165207Y-63429849D01*
X183018849Y-63576207D01*
X183018846Y-63576209D01*
X182846740Y-63691207D01*
X182655507Y-63770418D01*
X182452495Y-63810800D01*
X182245505Y-63810800D01*
X182042493Y-63770418D01*
X181851260Y-63691207D01*
X181679154Y-63576209D01*
X181679151Y-63576207D01*
X181532793Y-63429849D01*
X181511933Y-63398630D01*
X181417793Y-63257740D01*
X181338582Y-63066507D01*
X181298200Y-62863495D01*
X181298200Y-62656505D01*
X181338582Y-62453493D01*
X181417793Y-62262260D01*
X181532791Y-62090154D01*
X181532793Y-62090151D01*
X181679151Y-61943793D01*
X181763040Y-61887740D01*
X181851260Y-61828793D01*
X182042493Y-61749582D01*
X182245505Y-61709200D01*
X182452495Y-61709200D01*
X182655507Y-61749582D01*
X182655507Y-61749582D01*
G37*
G36*
X138653748Y-61329426D02*
X138653750Y-61329427D01*
X138653751Y-61329427D01*
X138799591Y-61389836D01*
X138930843Y-61477536D01*
X138930847Y-61477539D01*
X139042461Y-61589153D01*
X139130165Y-61720411D01*
X139190574Y-61866252D01*
X139221370Y-62021071D01*
X139221370Y-62178929D01*
X139190574Y-62333748D01*
X139130165Y-62479589D01*
X139042461Y-62610847D01*
X138930847Y-62722461D01*
X138930844Y-62722463D01*
X138930843Y-62722464D01*
X138799591Y-62810164D01*
X138653751Y-62870573D01*
X138653750Y-62870573D01*
X138653748Y-62870574D01*
X138498929Y-62901370D01*
X138341071Y-62901370D01*
X138186252Y-62870574D01*
X138186250Y-62870573D01*
X138186249Y-62870573D01*
X138040409Y-62810164D01*
X137909157Y-62722464D01*
X137909156Y-62722463D01*
X137909153Y-62722461D01*
X137797539Y-62610847D01*
X137709835Y-62479589D01*
X137649426Y-62333748D01*
X137618630Y-62178929D01*
X137618630Y-62021071D01*
X137649426Y-61866252D01*
X137709835Y-61720411D01*
X137797539Y-61589153D01*
X137909153Y-61477539D01*
X137909157Y-61477536D01*
X138040409Y-61389836D01*
X138186249Y-61329427D01*
X138186250Y-61329427D01*
X138186252Y-61329426D01*
X138341071Y-61298630D01*
X138498929Y-61298630D01*
X138653748Y-61329426D01*
X138653748Y-61329426D01*
G37*
G36*
X136053748Y-61329426D02*
X136053750Y-61329427D01*
X136053751Y-61329427D01*
X136199591Y-61389836D01*
X136330843Y-61477536D01*
X136330847Y-61477539D01*
X136442461Y-61589153D01*
X136530165Y-61720411D01*
X136590574Y-61866252D01*
X136621370Y-62021071D01*
X136621370Y-62178929D01*
X136590574Y-62333748D01*
X136530165Y-62479589D01*
X136442461Y-62610847D01*
X136330847Y-62722461D01*
X136330844Y-62722463D01*
X136330843Y-62722464D01*
X136199591Y-62810164D01*
X136053751Y-62870573D01*
X136053750Y-62870573D01*
X136053748Y-62870574D01*
X135898929Y-62901370D01*
X135741071Y-62901370D01*
X135586252Y-62870574D01*
X135586250Y-62870573D01*
X135586249Y-62870573D01*
X135440409Y-62810164D01*
X135309157Y-62722464D01*
X135309156Y-62722463D01*
X135309153Y-62722461D01*
X135197539Y-62610847D01*
X135109835Y-62479589D01*
X135049426Y-62333748D01*
X135018630Y-62178929D01*
X135018630Y-62021071D01*
X135049426Y-61866252D01*
X135109835Y-61720411D01*
X135197539Y-61589153D01*
X135309153Y-61477539D01*
X135309157Y-61477536D01*
X135440409Y-61389836D01*
X135586249Y-61329427D01*
X135586250Y-61329427D01*
X135586252Y-61329426D01*
X135741071Y-61298630D01*
X135898929Y-61298630D01*
X136053748Y-61329426D01*
X136053748Y-61329426D01*
G37*
G36*
X171870787Y-60756510D02*
X172031160Y-60805160D01*
X172031162Y-60805161D01*
X172178966Y-60884163D01*
X172308517Y-60990483D01*
X172414837Y-61120034D01*
X172493839Y-61267838D01*
X172493840Y-61267840D01*
X172542490Y-61428213D01*
X172558916Y-61595000D01*
X172542490Y-61761787D01*
X172504281Y-61887740D01*
X172493839Y-61922162D01*
X172414837Y-62069966D01*
X172308517Y-62199517D01*
X172178966Y-62305837D01*
X172031162Y-62384839D01*
X172031160Y-62384840D01*
X171870787Y-62433490D01*
X171745794Y-62445800D01*
X171662206Y-62445800D01*
X171537213Y-62433490D01*
X171376840Y-62384840D01*
X171376838Y-62384839D01*
X171229034Y-62305837D01*
X171099483Y-62199517D01*
X170993163Y-62069966D01*
X170914161Y-61922162D01*
X170903719Y-61887740D01*
X170865510Y-61761787D01*
X170849084Y-61595000D01*
X170865510Y-61428213D01*
X170914160Y-61267840D01*
X170914161Y-61267838D01*
X170993163Y-61120034D01*
X171099483Y-60990483D01*
X171229034Y-60884163D01*
X171376838Y-60805161D01*
X171376840Y-60805160D01*
X171537213Y-60756510D01*
X171662206Y-60744200D01*
X171745794Y-60744200D01*
X171870787Y-60756510D01*
X171870787Y-60756510D01*
G37*
G36*
X164250787Y-60756510D02*
X164411160Y-60805160D01*
X164411162Y-60805161D01*
X164558966Y-60884163D01*
X164688517Y-60990483D01*
X164794837Y-61120034D01*
X164873839Y-61267838D01*
X164873840Y-61267840D01*
X164922490Y-61428213D01*
X164938916Y-61595000D01*
X164922490Y-61761787D01*
X164884281Y-61887740D01*
X164873839Y-61922162D01*
X164794837Y-62069966D01*
X164688517Y-62199517D01*
X164558966Y-62305837D01*
X164411162Y-62384839D01*
X164411160Y-62384840D01*
X164250787Y-62433490D01*
X164125794Y-62445800D01*
X164042206Y-62445800D01*
X163917213Y-62433490D01*
X163756840Y-62384840D01*
X163756838Y-62384839D01*
X163609034Y-62305837D01*
X163479483Y-62199517D01*
X163373163Y-62069966D01*
X163294161Y-61922162D01*
X163283719Y-61887740D01*
X163245510Y-61761787D01*
X163229084Y-61595000D01*
X163245510Y-61428213D01*
X163294160Y-61267840D01*
X163294161Y-61267838D01*
X163373163Y-61120034D01*
X163479483Y-60990483D01*
X163609034Y-60884163D01*
X163756838Y-60805161D01*
X163756840Y-60805160D01*
X163917213Y-60756510D01*
X164042206Y-60744200D01*
X164125794Y-60744200D01*
X164250787Y-60756510D01*
X164250787Y-60756510D01*
G37*
G36*
X185495507Y-60379582D02*
X185686740Y-60458793D01*
X185774960Y-60517740D01*
X185858849Y-60573793D01*
X186005207Y-60720151D01*
X186005209Y-60720154D01*
X186120207Y-60892260D01*
X186199418Y-61083493D01*
X186239800Y-61286505D01*
X186239800Y-61493495D01*
X186199418Y-61696507D01*
X186120207Y-61887740D01*
X186082753Y-61943793D01*
X186005207Y-62059849D01*
X185858849Y-62206207D01*
X185858846Y-62206209D01*
X185686740Y-62321207D01*
X185495507Y-62400418D01*
X185292495Y-62440800D01*
X185085505Y-62440800D01*
X184882493Y-62400418D01*
X184691260Y-62321207D01*
X184519154Y-62206209D01*
X184519151Y-62206207D01*
X184372793Y-62059849D01*
X184295247Y-61943793D01*
X184257793Y-61887740D01*
X184178582Y-61696507D01*
X184138200Y-61493495D01*
X184138200Y-61286505D01*
X184178582Y-61083493D01*
X184257793Y-60892260D01*
X184372791Y-60720154D01*
X184372793Y-60720151D01*
X184519151Y-60573793D01*
X184603040Y-60517740D01*
X184691260Y-60458793D01*
X184882493Y-60379582D01*
X185085505Y-60339200D01*
X185292495Y-60339200D01*
X185495507Y-60379582D01*
X185495507Y-60379582D01*
G37*
G36*
X182655507Y-59009582D02*
X182846740Y-59088793D01*
X183017687Y-59203016D01*
X183018849Y-59203793D01*
X183165207Y-59350151D01*
X183165209Y-59350154D01*
X183280207Y-59522260D01*
X183359418Y-59713493D01*
X183399800Y-59916505D01*
X183399800Y-60123495D01*
X183359418Y-60326507D01*
X183280207Y-60517740D01*
X183242753Y-60573793D01*
X183165207Y-60689849D01*
X183018849Y-60836207D01*
X183018846Y-60836209D01*
X182846740Y-60951207D01*
X182655507Y-61030418D01*
X182452495Y-61070800D01*
X182245505Y-61070800D01*
X182042493Y-61030418D01*
X181851260Y-60951207D01*
X181679154Y-60836209D01*
X181679151Y-60836207D01*
X181532793Y-60689849D01*
X181455247Y-60573793D01*
X181417793Y-60517740D01*
X181338582Y-60326507D01*
X181298200Y-60123495D01*
X181298200Y-59916505D01*
X181338582Y-59713493D01*
X181417793Y-59522260D01*
X181532791Y-59350154D01*
X181532793Y-59350151D01*
X181679151Y-59203793D01*
X181680313Y-59203016D01*
X181851260Y-59088793D01*
X182042493Y-59009582D01*
X182245505Y-58969200D01*
X182452495Y-58969200D01*
X182655507Y-59009582D01*
X182655507Y-59009582D01*
G37*
G36*
X133202616Y-56989966D02*
X133345292Y-57018346D01*
X133673027Y-57154098D01*
X133967982Y-57351180D01*
X134218820Y-57602018D01*
X134415902Y-57896973D01*
X134551654Y-58224708D01*
X134562313Y-58278293D01*
X134620860Y-58572629D01*
X134620860Y-58927371D01*
X134604507Y-59009582D01*
X134551654Y-59275292D01*
X134415902Y-59603027D01*
X134218820Y-59897982D01*
X133967982Y-60148820D01*
X133673027Y-60345902D01*
X133345292Y-60481654D01*
X133229318Y-60504723D01*
X132997371Y-60550860D01*
X132642629Y-60550860D01*
X132410682Y-60504723D01*
X132294708Y-60481654D01*
X131966973Y-60345902D01*
X131672018Y-60148820D01*
X131421180Y-59897982D01*
X131224098Y-59603027D01*
X131088346Y-59275292D01*
X131035493Y-59009582D01*
X131019140Y-58927371D01*
X131019140Y-58572629D01*
X131077687Y-58278293D01*
X131088346Y-58224708D01*
X131224098Y-57896973D01*
X131421180Y-57602018D01*
X131672018Y-57351180D01*
X131966973Y-57154098D01*
X132294708Y-57018346D01*
X132437384Y-56989966D01*
X132642629Y-56949140D01*
X132997371Y-56949140D01*
X133202616Y-56989966D01*
X133202616Y-56989966D01*
G37*
G36*
X171870787Y-58216510D02*
X172031160Y-58265160D01*
X172031162Y-58265161D01*
X172178966Y-58344163D01*
X172308517Y-58450483D01*
X172414837Y-58580034D01*
X172493839Y-58727838D01*
X172493840Y-58727840D01*
X172542490Y-58888213D01*
X172558916Y-59055000D01*
X172542490Y-59221787D01*
X172503550Y-59350151D01*
X172493839Y-59382162D01*
X172414837Y-59529966D01*
X172308517Y-59659517D01*
X172178966Y-59765837D01*
X172060477Y-59829170D01*
X172031160Y-59844840D01*
X171870787Y-59893490D01*
X171745794Y-59905800D01*
X171662206Y-59905800D01*
X171537213Y-59893490D01*
X171376840Y-59844840D01*
X171347523Y-59829170D01*
X171229034Y-59765837D01*
X171099483Y-59659517D01*
X170993163Y-59529966D01*
X170914161Y-59382162D01*
X170904450Y-59350151D01*
X170865510Y-59221787D01*
X170849084Y-59055000D01*
X170865510Y-58888213D01*
X170914160Y-58727840D01*
X170914161Y-58727838D01*
X170993163Y-58580034D01*
X171099483Y-58450483D01*
X171229034Y-58344163D01*
X171376838Y-58265161D01*
X171376840Y-58265160D01*
X171537213Y-58216510D01*
X171662206Y-58204200D01*
X171745794Y-58204200D01*
X171870787Y-58216510D01*
X171870787Y-58216510D01*
G37*
G36*
X164250787Y-58216510D02*
X164411160Y-58265160D01*
X164411162Y-58265161D01*
X164558966Y-58344163D01*
X164688517Y-58450483D01*
X164794837Y-58580034D01*
X164873839Y-58727838D01*
X164873840Y-58727840D01*
X164922490Y-58888213D01*
X164938916Y-59055000D01*
X164922490Y-59221787D01*
X164883550Y-59350151D01*
X164873839Y-59382162D01*
X164794837Y-59529966D01*
X164688517Y-59659517D01*
X164558966Y-59765837D01*
X164440477Y-59829170D01*
X164411160Y-59844840D01*
X164250787Y-59893490D01*
X164125794Y-59905800D01*
X164042206Y-59905800D01*
X163917213Y-59893490D01*
X163756840Y-59844840D01*
X163727523Y-59829170D01*
X163609034Y-59765837D01*
X163479483Y-59659517D01*
X163373163Y-59529966D01*
X163294161Y-59382162D01*
X163284450Y-59350151D01*
X163245510Y-59221787D01*
X163229084Y-59055000D01*
X163245510Y-58888213D01*
X163294160Y-58727840D01*
X163294161Y-58727838D01*
X163373163Y-58580034D01*
X163479483Y-58450483D01*
X163609034Y-58344163D01*
X163756838Y-58265161D01*
X163756840Y-58265160D01*
X163917213Y-58216510D01*
X164042206Y-58204200D01*
X164125794Y-58204200D01*
X164250787Y-58216510D01*
X164250787Y-58216510D01*
G37*
G36*
X153150751Y-58026830D02*
X153150754Y-58026831D01*
X153323119Y-58079117D01*
X153323121Y-58079118D01*
X153481973Y-58164027D01*
X153621207Y-58278293D01*
X153735473Y-58417527D01*
X153818379Y-58572631D01*
X153820383Y-58576381D01*
X153821491Y-58580034D01*
X153872670Y-58748749D01*
X153890324Y-58928000D01*
X153872670Y-59107251D01*
X153872669Y-59107254D01*
X153821696Y-59275292D01*
X153820382Y-59279621D01*
X153735473Y-59438473D01*
X153621207Y-59577707D01*
X153481973Y-59691973D01*
X153323121Y-59776882D01*
X153323119Y-59776883D01*
X153182839Y-59819436D01*
X153150751Y-59829170D01*
X153016421Y-59842400D01*
X152926579Y-59842400D01*
X152792249Y-59829170D01*
X152760161Y-59819436D01*
X152619881Y-59776883D01*
X152619879Y-59776882D01*
X152461027Y-59691973D01*
X152321793Y-59577707D01*
X152207527Y-59438473D01*
X152122618Y-59279621D01*
X152121305Y-59275292D01*
X152070331Y-59107254D01*
X152070330Y-59107251D01*
X152052676Y-58928000D01*
X152070330Y-58748749D01*
X152121509Y-58580034D01*
X152122617Y-58576381D01*
X152124621Y-58572631D01*
X152207527Y-58417527D01*
X152321793Y-58278293D01*
X152461027Y-58164027D01*
X152619879Y-58079118D01*
X152619881Y-58079117D01*
X152792246Y-58026831D01*
X152792249Y-58026830D01*
X152926579Y-58013600D01*
X153016421Y-58013600D01*
X153150751Y-58026830D01*
X153150751Y-58026830D01*
G37*
G36*
X150610751Y-58026830D02*
X150610754Y-58026831D01*
X150783119Y-58079117D01*
X150783121Y-58079118D01*
X150941973Y-58164027D01*
X151081207Y-58278293D01*
X151195473Y-58417527D01*
X151278379Y-58572631D01*
X151280383Y-58576381D01*
X151281491Y-58580034D01*
X151332670Y-58748749D01*
X151350324Y-58928000D01*
X151332670Y-59107251D01*
X151332669Y-59107254D01*
X151281696Y-59275292D01*
X151280382Y-59279621D01*
X151195473Y-59438473D01*
X151081207Y-59577707D01*
X150941973Y-59691973D01*
X150783121Y-59776882D01*
X150783119Y-59776883D01*
X150642839Y-59819436D01*
X150610751Y-59829170D01*
X150476421Y-59842400D01*
X150386579Y-59842400D01*
X150252249Y-59829170D01*
X150220161Y-59819436D01*
X150079881Y-59776883D01*
X150079879Y-59776882D01*
X149921027Y-59691973D01*
X149781793Y-59577707D01*
X149667527Y-59438473D01*
X149582618Y-59279621D01*
X149581305Y-59275292D01*
X149530331Y-59107254D01*
X149530330Y-59107251D01*
X149512676Y-58928000D01*
X149530330Y-58748749D01*
X149581509Y-58580034D01*
X149582617Y-58576381D01*
X149584621Y-58572631D01*
X149667527Y-58417527D01*
X149781793Y-58278293D01*
X149921027Y-58164027D01*
X150079879Y-58079118D01*
X150079881Y-58079117D01*
X150252246Y-58026831D01*
X150252249Y-58026830D01*
X150386579Y-58013600D01*
X150476421Y-58013600D01*
X150610751Y-58026830D01*
X150610751Y-58026830D01*
G37*
G36*
X148805900Y-59842400D02*
X146977100Y-59842400D01*
X146977100Y-58013600D01*
X148805900Y-58013600D01*
X148805900Y-59842400D01*
X148805900Y-59842400D01*
G37*
G36*
X171870787Y-55676510D02*
X172031160Y-55725160D01*
X172031162Y-55725161D01*
X172178966Y-55804163D01*
X172308517Y-55910483D01*
X172414837Y-56040034D01*
X172478618Y-56159362D01*
X172493840Y-56187840D01*
X172542490Y-56348213D01*
X172558916Y-56515000D01*
X172542490Y-56681787D01*
X172493840Y-56842160D01*
X172493839Y-56842162D01*
X172414837Y-56989966D01*
X172308517Y-57119517D01*
X172178966Y-57225837D01*
X172060477Y-57289170D01*
X172031160Y-57304840D01*
X171870787Y-57353490D01*
X171745794Y-57365800D01*
X171662206Y-57365800D01*
X171537213Y-57353490D01*
X171376840Y-57304840D01*
X171347523Y-57289170D01*
X171229034Y-57225837D01*
X171099483Y-57119517D01*
X170993163Y-56989966D01*
X170914161Y-56842162D01*
X170914160Y-56842160D01*
X170865510Y-56681787D01*
X170849084Y-56515000D01*
X170865510Y-56348213D01*
X170914160Y-56187840D01*
X170929382Y-56159362D01*
X170993163Y-56040034D01*
X171099483Y-55910483D01*
X171229034Y-55804163D01*
X171376838Y-55725161D01*
X171376840Y-55725160D01*
X171537213Y-55676510D01*
X171662206Y-55664200D01*
X171745794Y-55664200D01*
X171870787Y-55676510D01*
X171870787Y-55676510D01*
G37*
G36*
X164250787Y-55676510D02*
X164411160Y-55725160D01*
X164411162Y-55725161D01*
X164558966Y-55804163D01*
X164688517Y-55910483D01*
X164794837Y-56040034D01*
X164858618Y-56159362D01*
X164873840Y-56187840D01*
X164922490Y-56348213D01*
X164938916Y-56515000D01*
X164922490Y-56681787D01*
X164873840Y-56842160D01*
X164873839Y-56842162D01*
X164794837Y-56989966D01*
X164688517Y-57119517D01*
X164558966Y-57225837D01*
X164440477Y-57289170D01*
X164411160Y-57304840D01*
X164250787Y-57353490D01*
X164125794Y-57365800D01*
X164042206Y-57365800D01*
X163917213Y-57353490D01*
X163756840Y-57304840D01*
X163727523Y-57289170D01*
X163609034Y-57225837D01*
X163479483Y-57119517D01*
X163373163Y-56989966D01*
X163294161Y-56842162D01*
X163294160Y-56842160D01*
X163245510Y-56681787D01*
X163229084Y-56515000D01*
X163245510Y-56348213D01*
X163294160Y-56187840D01*
X163309382Y-56159362D01*
X163373163Y-56040034D01*
X163479483Y-55910483D01*
X163609034Y-55804163D01*
X163756838Y-55725161D01*
X163756840Y-55725160D01*
X163917213Y-55676510D01*
X164042206Y-55664200D01*
X164125794Y-55664200D01*
X164250787Y-55676510D01*
X164250787Y-55676510D01*
G37*
G36*
X153150751Y-55486830D02*
X153150754Y-55486831D01*
X153323119Y-55539117D01*
X153323121Y-55539118D01*
X153481973Y-55624027D01*
X153621207Y-55738293D01*
X153735473Y-55877527D01*
X153764491Y-55931815D01*
X153820383Y-56036381D01*
X153821491Y-56040034D01*
X153872670Y-56208749D01*
X153890324Y-56388000D01*
X153872670Y-56567251D01*
X153820382Y-56739621D01*
X153735473Y-56898473D01*
X153621207Y-57037707D01*
X153481973Y-57151973D01*
X153323121Y-57236882D01*
X153323119Y-57236883D01*
X153182839Y-57279436D01*
X153150751Y-57289170D01*
X153016421Y-57302400D01*
X152926579Y-57302400D01*
X152792249Y-57289170D01*
X152760161Y-57279436D01*
X152619881Y-57236883D01*
X152619879Y-57236882D01*
X152461027Y-57151973D01*
X152321793Y-57037707D01*
X152207527Y-56898473D01*
X152122618Y-56739621D01*
X152070330Y-56567251D01*
X152052676Y-56388000D01*
X152070330Y-56208749D01*
X152121509Y-56040034D01*
X152122617Y-56036381D01*
X152178509Y-55931815D01*
X152207527Y-55877527D01*
X152321793Y-55738293D01*
X152461027Y-55624027D01*
X152619879Y-55539118D01*
X152619881Y-55539117D01*
X152792246Y-55486831D01*
X152792249Y-55486830D01*
X152926579Y-55473600D01*
X153016421Y-55473600D01*
X153150751Y-55486830D01*
X153150751Y-55486830D01*
G37*
G36*
X148070751Y-55486830D02*
X148070754Y-55486831D01*
X148243119Y-55539117D01*
X148243121Y-55539118D01*
X148401973Y-55624027D01*
X148541207Y-55738293D01*
X148655473Y-55877527D01*
X148684491Y-55931815D01*
X148740383Y-56036381D01*
X148741491Y-56040034D01*
X148792670Y-56208749D01*
X148810324Y-56388000D01*
X148792670Y-56567251D01*
X148740382Y-56739621D01*
X148655473Y-56898473D01*
X148541207Y-57037707D01*
X148401973Y-57151973D01*
X148243121Y-57236882D01*
X148243119Y-57236883D01*
X148102839Y-57279436D01*
X148070751Y-57289170D01*
X147936421Y-57302400D01*
X147846579Y-57302400D01*
X147712249Y-57289170D01*
X147680161Y-57279436D01*
X147539881Y-57236883D01*
X147539879Y-57236882D01*
X147381027Y-57151973D01*
X147241793Y-57037707D01*
X147127527Y-56898473D01*
X147042618Y-56739621D01*
X146990330Y-56567251D01*
X146972676Y-56388000D01*
X146990330Y-56208749D01*
X147041509Y-56040034D01*
X147042617Y-56036381D01*
X147098509Y-55931815D01*
X147127527Y-55877527D01*
X147241793Y-55738293D01*
X147381027Y-55624027D01*
X147539879Y-55539118D01*
X147539881Y-55539117D01*
X147712246Y-55486831D01*
X147712249Y-55486830D01*
X147846579Y-55473600D01*
X147936421Y-55473600D01*
X148070751Y-55486830D01*
X148070751Y-55486830D01*
G37*
G36*
X150610751Y-55486830D02*
X150610754Y-55486831D01*
X150783119Y-55539117D01*
X150783121Y-55539118D01*
X150941973Y-55624027D01*
X151081207Y-55738293D01*
X151195473Y-55877527D01*
X151224491Y-55931815D01*
X151280383Y-56036381D01*
X151281491Y-56040034D01*
X151332670Y-56208749D01*
X151350324Y-56388000D01*
X151332670Y-56567251D01*
X151280382Y-56739621D01*
X151195473Y-56898473D01*
X151081207Y-57037707D01*
X150941973Y-57151973D01*
X150783121Y-57236882D01*
X150783119Y-57236883D01*
X150642839Y-57279436D01*
X150610751Y-57289170D01*
X150476421Y-57302400D01*
X150386579Y-57302400D01*
X150252249Y-57289170D01*
X150220161Y-57279436D01*
X150079881Y-57236883D01*
X150079879Y-57236882D01*
X149921027Y-57151973D01*
X149781793Y-57037707D01*
X149667527Y-56898473D01*
X149582618Y-56739621D01*
X149530330Y-56567251D01*
X149512676Y-56388000D01*
X149530330Y-56208749D01*
X149581509Y-56040034D01*
X149582617Y-56036381D01*
X149638509Y-55931815D01*
X149667527Y-55877527D01*
X149781793Y-55738293D01*
X149921027Y-55624027D01*
X150079879Y-55539118D01*
X150079881Y-55539117D01*
X150252246Y-55486831D01*
X150252249Y-55486830D01*
X150386579Y-55473600D01*
X150476421Y-55473600D01*
X150610751Y-55486830D01*
X150610751Y-55486830D01*
G37*
G36*
X160365998Y-55793052D02*
X160366001Y-55793053D01*
X160366000Y-55793053D01*
X160502637Y-55849649D01*
X160502638Y-55849650D01*
X160625610Y-55931817D01*
X160730183Y-56036390D01*
X160730185Y-56036393D01*
X160812351Y-56159363D01*
X160832807Y-56208749D01*
X160868948Y-56296002D01*
X160897800Y-56441051D01*
X160897800Y-56588949D01*
X160868948Y-56733998D01*
X160868947Y-56734000D01*
X160812351Y-56870637D01*
X160731291Y-56991951D01*
X160730183Y-56993610D01*
X160625610Y-57098183D01*
X160625607Y-57098185D01*
X160502637Y-57180351D01*
X160396954Y-57224126D01*
X160365998Y-57236948D01*
X160220949Y-57265800D01*
X160073051Y-57265800D01*
X159928002Y-57236948D01*
X159897046Y-57224126D01*
X159791363Y-57180351D01*
X159668393Y-57098185D01*
X159668390Y-57098183D01*
X159563817Y-56993610D01*
X159562709Y-56991951D01*
X159481649Y-56870637D01*
X159425053Y-56734000D01*
X159425052Y-56733998D01*
X159396200Y-56588949D01*
X159396200Y-56441051D01*
X159425052Y-56296002D01*
X159461193Y-56208749D01*
X159481649Y-56159363D01*
X159563815Y-56036393D01*
X159563817Y-56036390D01*
X159668390Y-55931817D01*
X159791362Y-55849650D01*
X159791363Y-55849649D01*
X159928000Y-55793053D01*
X159927999Y-55793053D01*
X159928002Y-55793052D01*
X160073051Y-55764200D01*
X160220949Y-55764200D01*
X160365998Y-55793052D01*
X160365998Y-55793052D01*
G37*
G36*
X136876669Y-53283895D02*
X137031505Y-53348031D01*
X137170854Y-53441140D01*
X137289360Y-53559646D01*
X137382469Y-53698995D01*
X137446605Y-53853831D01*
X137479300Y-54018203D01*
X137479300Y-54185797D01*
X137446605Y-54350169D01*
X137382469Y-54505005D01*
X137289360Y-54644354D01*
X137170854Y-54762860D01*
X137031505Y-54855969D01*
X136876669Y-54920105D01*
X136712297Y-54952800D01*
X136544703Y-54952800D01*
X136380331Y-54920105D01*
X136225495Y-54855969D01*
X136086146Y-54762860D01*
X135967640Y-54644354D01*
X135874531Y-54505005D01*
X135810395Y-54350169D01*
X135777700Y-54185797D01*
X135777700Y-54018203D01*
X135810395Y-53853831D01*
X135874531Y-53698995D01*
X135967640Y-53559646D01*
X136086146Y-53441140D01*
X136225495Y-53348031D01*
X136380331Y-53283895D01*
X136544703Y-53251200D01*
X136712297Y-53251200D01*
X136876669Y-53283895D01*
X136876669Y-53283895D01*
G37*
G36*
X139979300Y-54952800D02*
X138277700Y-54952800D01*
X138277700Y-53251200D01*
X139979300Y-53251200D01*
X139979300Y-54952800D01*
X139979300Y-54952800D01*
G37*
G36*
X171870787Y-53136510D02*
X172031160Y-53185160D01*
X172031162Y-53185161D01*
X172178966Y-53264163D01*
X172308517Y-53370483D01*
X172414837Y-53500034D01*
X172493839Y-53647838D01*
X172493840Y-53647840D01*
X172542490Y-53808213D01*
X172558916Y-53975000D01*
X172542490Y-54141787D01*
X172493840Y-54302160D01*
X172493839Y-54302162D01*
X172414837Y-54449966D01*
X172308517Y-54579517D01*
X172178966Y-54685837D01*
X172034870Y-54762857D01*
X172031160Y-54764840D01*
X171870787Y-54813490D01*
X171745794Y-54825800D01*
X171662206Y-54825800D01*
X171537213Y-54813490D01*
X171376840Y-54764840D01*
X171373130Y-54762857D01*
X171229034Y-54685837D01*
X171099483Y-54579517D01*
X170993163Y-54449966D01*
X170914161Y-54302162D01*
X170914160Y-54302160D01*
X170865510Y-54141787D01*
X170849084Y-53975000D01*
X170865510Y-53808213D01*
X170914160Y-53647840D01*
X170914161Y-53647838D01*
X170993163Y-53500034D01*
X171099483Y-53370483D01*
X171229034Y-53264163D01*
X171376838Y-53185161D01*
X171376840Y-53185160D01*
X171537213Y-53136510D01*
X171662206Y-53124200D01*
X171745794Y-53124200D01*
X171870787Y-53136510D01*
X171870787Y-53136510D01*
G37*
G36*
X164250787Y-53136510D02*
X164411160Y-53185160D01*
X164411162Y-53185161D01*
X164558966Y-53264163D01*
X164688517Y-53370483D01*
X164794837Y-53500034D01*
X164873839Y-53647838D01*
X164873840Y-53647840D01*
X164922490Y-53808213D01*
X164938916Y-53975000D01*
X164922490Y-54141787D01*
X164873840Y-54302160D01*
X164873839Y-54302162D01*
X164794837Y-54449966D01*
X164688517Y-54579517D01*
X164558966Y-54685837D01*
X164414870Y-54762857D01*
X164411160Y-54764840D01*
X164250787Y-54813490D01*
X164125794Y-54825800D01*
X164042206Y-54825800D01*
X163917213Y-54813490D01*
X163756840Y-54764840D01*
X163753130Y-54762857D01*
X163609034Y-54685837D01*
X163479483Y-54579517D01*
X163373163Y-54449966D01*
X163294161Y-54302162D01*
X163294160Y-54302160D01*
X163245510Y-54141787D01*
X163229084Y-53975000D01*
X163245510Y-53808213D01*
X163294160Y-53647840D01*
X163294161Y-53647838D01*
X163373163Y-53500034D01*
X163479483Y-53370483D01*
X163609034Y-53264163D01*
X163756838Y-53185161D01*
X163756840Y-53185160D01*
X163917213Y-53136510D01*
X164042206Y-53124200D01*
X164125794Y-53124200D01*
X164250787Y-53136510D01*
X164250787Y-53136510D01*
G37*
G36*
X184268177Y-51268213D02*
X184294274Y-51273404D01*
X184621999Y-51409152D01*
X184660683Y-51435000D01*
X184916946Y-51606230D01*
X185167770Y-51857054D01*
X185364849Y-52152003D01*
X185500596Y-52479726D01*
X185569800Y-52827636D01*
X185569800Y-53182364D01*
X185500596Y-53530274D01*
X185364849Y-53857997D01*
X185167770Y-54152946D01*
X184916946Y-54403770D01*
X184916943Y-54403772D01*
X184621999Y-54600848D01*
X184621998Y-54600849D01*
X184621997Y-54600849D01*
X184294274Y-54736596D01*
X183946364Y-54805800D01*
X183591636Y-54805800D01*
X183243726Y-54736596D01*
X182916003Y-54600849D01*
X182916002Y-54600849D01*
X182916001Y-54600848D01*
X182621057Y-54403772D01*
X182621054Y-54403770D01*
X182370230Y-54152946D01*
X182173151Y-53857997D01*
X182037404Y-53530274D01*
X181968200Y-53182364D01*
X181968200Y-52827636D01*
X182037404Y-52479726D01*
X182173151Y-52152003D01*
X182370230Y-51857054D01*
X182621054Y-51606230D01*
X182877317Y-51435000D01*
X182916001Y-51409152D01*
X183243726Y-51273404D01*
X183269823Y-51268213D01*
X183591636Y-51204200D01*
X183946364Y-51204200D01*
X184268177Y-51268213D01*
X184268177Y-51268213D01*
G37*
G36*
X171870787Y-50596510D02*
X172031160Y-50645160D01*
X172031162Y-50645161D01*
X172178966Y-50724163D01*
X172308517Y-50830483D01*
X172414837Y-50960034D01*
X172493839Y-51107838D01*
X172493840Y-51107840D01*
X172542490Y-51268213D01*
X172558916Y-51435000D01*
X172542490Y-51601787D01*
X172496036Y-51754920D01*
X172493839Y-51762162D01*
X172414837Y-51909966D01*
X172308517Y-52039517D01*
X172178966Y-52145837D01*
X172031162Y-52224839D01*
X172031160Y-52224840D01*
X171870787Y-52273490D01*
X171745794Y-52285800D01*
X171662206Y-52285800D01*
X171537213Y-52273490D01*
X171376840Y-52224840D01*
X171376838Y-52224839D01*
X171229034Y-52145837D01*
X171099483Y-52039517D01*
X170993163Y-51909966D01*
X170914161Y-51762162D01*
X170911964Y-51754920D01*
X170865510Y-51601787D01*
X170849084Y-51435000D01*
X170865510Y-51268213D01*
X170914160Y-51107840D01*
X170914161Y-51107838D01*
X170993163Y-50960034D01*
X171099483Y-50830483D01*
X171229034Y-50724163D01*
X171376838Y-50645161D01*
X171376840Y-50645160D01*
X171537213Y-50596510D01*
X171662206Y-50584200D01*
X171745794Y-50584200D01*
X171870787Y-50596510D01*
X171870787Y-50596510D01*
G37*
G36*
X164250787Y-50596510D02*
X164411160Y-50645160D01*
X164411162Y-50645161D01*
X164558966Y-50724163D01*
X164688517Y-50830483D01*
X164794837Y-50960034D01*
X164873839Y-51107838D01*
X164873840Y-51107840D01*
X164922490Y-51268213D01*
X164938916Y-51435000D01*
X164922490Y-51601787D01*
X164876036Y-51754920D01*
X164873839Y-51762162D01*
X164794837Y-51909966D01*
X164688517Y-52039517D01*
X164558966Y-52145837D01*
X164411162Y-52224839D01*
X164411160Y-52224840D01*
X164250787Y-52273490D01*
X164125794Y-52285800D01*
X164042206Y-52285800D01*
X163917213Y-52273490D01*
X163756840Y-52224840D01*
X163756838Y-52224839D01*
X163609034Y-52145837D01*
X163479483Y-52039517D01*
X163373163Y-51909966D01*
X163294161Y-51762162D01*
X163291964Y-51754920D01*
X163245510Y-51601787D01*
X163229084Y-51435000D01*
X163245510Y-51268213D01*
X163294160Y-51107840D01*
X163294161Y-51107838D01*
X163373163Y-50960034D01*
X163479483Y-50830483D01*
X163609034Y-50724163D01*
X163756838Y-50645161D01*
X163756840Y-50645160D01*
X163917213Y-50596510D01*
X164042206Y-50584200D01*
X164125794Y-50584200D01*
X164250787Y-50596510D01*
X164250787Y-50596510D01*
G37*
G36*
X132957323Y-48657060D02*
X133196521Y-48704639D01*
X133496947Y-48829080D01*
X133767324Y-49009740D01*
X133997260Y-49239676D01*
X134177920Y-49510053D01*
X134302361Y-49810479D01*
X134365800Y-50129410D01*
X134365800Y-50454590D01*
X134302361Y-50773521D01*
X134177920Y-51073947D01*
X133997260Y-51344324D01*
X133767324Y-51574260D01*
X133496947Y-51754920D01*
X133196521Y-51879361D01*
X132957323Y-51926940D01*
X132877591Y-51942800D01*
X132552409Y-51942800D01*
X132472677Y-51926940D01*
X132233479Y-51879361D01*
X131933053Y-51754920D01*
X131662676Y-51574260D01*
X131432740Y-51344324D01*
X131252080Y-51073947D01*
X131127639Y-50773521D01*
X131064200Y-50454590D01*
X131064200Y-50129410D01*
X131127639Y-49810479D01*
X131252080Y-49510053D01*
X131432740Y-49239676D01*
X131662676Y-49009740D01*
X131933053Y-48829080D01*
X132233479Y-48704639D01*
X132472677Y-48657060D01*
X132552409Y-48641200D01*
X132877591Y-48641200D01*
X132957323Y-48657060D01*
X132957323Y-48657060D01*
G37*
G36*
X176772323Y-48657060D02*
X177011521Y-48704639D01*
X177311947Y-48829080D01*
X177582324Y-49009740D01*
X177812260Y-49239676D01*
X177992920Y-49510053D01*
X178117361Y-49810479D01*
X178180800Y-50129410D01*
X178180800Y-50454590D01*
X178117361Y-50773521D01*
X177992920Y-51073947D01*
X177812260Y-51344324D01*
X177582324Y-51574260D01*
X177311947Y-51754920D01*
X177011521Y-51879361D01*
X176772323Y-51926940D01*
X176692591Y-51942800D01*
X176367409Y-51942800D01*
X176287677Y-51926940D01*
X176048479Y-51879361D01*
X175748053Y-51754920D01*
X175477676Y-51574260D01*
X175247740Y-51344324D01*
X175067080Y-51073947D01*
X174942639Y-50773521D01*
X174879200Y-50454590D01*
X174879200Y-50129410D01*
X174942639Y-49810479D01*
X175067080Y-49510053D01*
X175247740Y-49239676D01*
X175477676Y-49009740D01*
X175748053Y-48829080D01*
X176048479Y-48704639D01*
X176287677Y-48657060D01*
X176367409Y-48641200D01*
X176692591Y-48641200D01*
X176772323Y-48657060D01*
X176772323Y-48657060D01*
G37*
G36*
X171870787Y-48056510D02*
X172031160Y-48105160D01*
X172031162Y-48105161D01*
X172178966Y-48184163D01*
X172308517Y-48290483D01*
X172414837Y-48420034D01*
X172444676Y-48475860D01*
X172493840Y-48567840D01*
X172542490Y-48728213D01*
X172558916Y-48895000D01*
X172542490Y-49061787D01*
X172493840Y-49222160D01*
X172493839Y-49222162D01*
X172414837Y-49369966D01*
X172308517Y-49499517D01*
X172178966Y-49605837D01*
X172031162Y-49684839D01*
X172031160Y-49684840D01*
X171870787Y-49733490D01*
X171745794Y-49745800D01*
X171662206Y-49745800D01*
X171537213Y-49733490D01*
X171376840Y-49684840D01*
X171376838Y-49684839D01*
X171229034Y-49605837D01*
X171099483Y-49499517D01*
X170993163Y-49369966D01*
X170914161Y-49222162D01*
X170914160Y-49222160D01*
X170865510Y-49061787D01*
X170849084Y-48895000D01*
X170865510Y-48728213D01*
X170914160Y-48567840D01*
X170963324Y-48475860D01*
X170993163Y-48420034D01*
X171099483Y-48290483D01*
X171229034Y-48184163D01*
X171376838Y-48105161D01*
X171376840Y-48105160D01*
X171537213Y-48056510D01*
X171662206Y-48044200D01*
X171745794Y-48044200D01*
X171870787Y-48056510D01*
X171870787Y-48056510D01*
G37*
G36*
X164934800Y-49745800D02*
X163233200Y-49745800D01*
X163233200Y-48044200D01*
X164934800Y-48044200D01*
X164934800Y-49745800D01*
X164934800Y-49745800D01*
G37*
G36*
X160239029Y-48149632D02*
X160294182Y-48155064D01*
X160364945Y-48176530D01*
X160435710Y-48197996D01*
X160505427Y-48235261D01*
X160566140Y-48267713D01*
X160566142Y-48267714D01*
X160566141Y-48267714D01*
X160680464Y-48361536D01*
X160774286Y-48475859D01*
X160844004Y-48606290D01*
X160844004Y-48606291D01*
X160886936Y-48747818D01*
X160894940Y-48829081D01*
X160901432Y-48895000D01*
X160886936Y-49042181D01*
X160844004Y-49183710D01*
X160814090Y-49239674D01*
X160774287Y-49314140D01*
X160680464Y-49428464D01*
X160566140Y-49522287D01*
X160505427Y-49554739D01*
X160435710Y-49592004D01*
X160390115Y-49605835D01*
X160294182Y-49634936D01*
X160239029Y-49640368D01*
X160183878Y-49645800D01*
X160110122Y-49645800D01*
X160054971Y-49640368D01*
X159999818Y-49634936D01*
X159903885Y-49605835D01*
X159858290Y-49592004D01*
X159788573Y-49554739D01*
X159727860Y-49522287D01*
X159613536Y-49428464D01*
X159519713Y-49314140D01*
X159479910Y-49239674D01*
X159449996Y-49183710D01*
X159407064Y-49042181D01*
X159392568Y-48895000D01*
X159399060Y-48829081D01*
X159407064Y-48747818D01*
X159449996Y-48606291D01*
X159449996Y-48606290D01*
X159519714Y-48475859D01*
X159613536Y-48361536D01*
X159727859Y-48267714D01*
X159727858Y-48267714D01*
X159727860Y-48267713D01*
X159788573Y-48235261D01*
X159858290Y-48197996D01*
X159929055Y-48176530D01*
X159999818Y-48155064D01*
X160110122Y-48144200D01*
X160183878Y-48144200D01*
X160239029Y-48149632D01*
X160239029Y-48149632D01*
G37*
M02*
